<!-- Generator: Adobe Illustrator 22.1.0, SVG Export Plug-In  -->
<svg version="1.1"
	 xmlns="http://www.w3.org/2000/svg" xmlns:xlink="http://www.w3.org/1999/xlink" xmlns:a="http://ns.adobe.com/AdobeSVGViewerExtensions/3.0/"
	 x="0px" y="0px" width="15.4px" height="27.6px" viewBox="0 0 15.4 27.6" style="enable-background:new 0 0 15.4 27.6;"
	 xml:space="preserve">
<style type="text/css">
	.st0{fill-rule:evenodd;clip-rule:evenodd;fill:#FFFFFF;}
</style>
<defs>
</defs>
<g>
	<path class="st0" d="M6.7,3.5c0.5,0.1,0.8,0.6,0.6,1.1C7.2,5.1,6.7,5.3,6.3,5.2C5.8,5.1,5.5,4.6,5.6,4.1C5.7,3.7,6.2,3.4,6.7,3.5
		L6.7,3.5z"/>
	<path class="st0" d="M4.2,0c0.7,0.2,1.1,0.8,0.9,1.5C4.9,2.2,4.2,2.6,3.6,2.5C2.9,2.3,2.5,1.6,2.7,0.9C2.8,0.3,3.5-0.1,4.2,0L4.2,0
		z"/>
	<path class="st0" d="M7.9,1.5c0.2,0,0.3,0.2,0.2,0.4c0,0.2-0.2,0.3-0.4,0.2C7.5,2.1,7.4,2,7.4,1.8C7.5,1.6,7.7,1.5,7.9,1.5L7.9,1.5
		z"/>
	<path class="st0" d="M3.7,4.2C3.9,4.2,4,4.4,4,4.6c0,0.2-0.2,0.3-0.4,0.2S3.3,4.6,3.3,4.4C3.3,4.2,3.5,4.1,3.7,4.2L3.7,4.2z"/>
	<path d="M4.2,7.1c0.2,0,0.3,0.2,0.4,0.3l0,0c0.1,0.2,0.1,0.3,0.1,0.5c0,0.2-0.2,0.3-0.3,0.4C4.2,8.5,4,8.5,3.8,8.4v0
		c-0.2,0-0.3-0.2-0.4-0.3l0,0C3.3,8,3.2,7.8,3.3,7.6c0-0.2,0.2-0.3,0.3-0.4C3.8,7.1,4,7,4.2,7.1L4.2,7.1L4.2,7.1z M5.4,11.3h1
		c0.2,0,0.4,0.2,0.4,0.4s-0.2,0.4-0.4,0.4h-1v1.3h1c0.2,0,0.4,0.2,0.4,0.4c0,0.2-0.2,0.4-0.4,0.4h-1v1.3h1c0.2,0,0.4,0.2,0.4,0.4
		s-0.2,0.4-0.4,0.4h-1v1.3h1c0.2,0,0.4,0.2,0.4,0.4c0,0.2-0.2,0.4-0.4,0.4h-1v1h0c0,0.1,0,0.2-0.1,0.2l-3.7,4
		c-0.3,0.3-0.6,0.8-0.7,1.4h13.5c-0.2-0.5-0.4-1-0.7-1.4l-3.7-4c-0.1-0.1-0.1-0.2-0.1-0.3v-8.7H5.4V11.3L5.4,11.3z M1.1,22.8L4.7,19
		v-8.6H4.3c-0.2,0-0.4-0.2-0.4-0.4c0-0.2,0.2-0.4,0.4-0.4h6.7c0.2,0,0.4,0.2,0.4,0.4c0,0.2-0.2,0.4-0.4,0.4h-0.4V19l3.6,3.9
		c0.5,0.5,0.8,1.3,1,2.1c0.1,0.5,0.1,1,0.1,1.4c-0.1,0.5-0.3,0.9-0.7,1.1l0,0c-0.2,0.1-0.4,0.2-0.6,0.2v0l-12.6,0v0
		c-0.3,0-0.5-0.1-0.7-0.2c-0.4-0.2-0.6-0.6-0.7-1.1c-0.1-0.4,0-0.9,0.1-1.4C0.3,24.2,0.6,23.3,1.1,22.8L1.1,22.8z M0.7,25.4
		c0,0.3,0,0.6,0,0.8c0,0.3,0.2,0.5,0.3,0.6c0.1,0,0.2,0.1,0.3,0.1v0l12.6,0v0c0.1,0,0.2,0,0.3-0.1l0,0c0.2-0.1,0.3-0.3,0.3-0.6
		c0-0.2,0-0.5,0-0.8H0.7L0.7,25.4z M3.4,23.6c-0.1,0.2-0.4,0.2-0.5,0c-0.2-0.1-0.2-0.4,0-0.5l0.7-0.9c0.1-0.2,0.4-0.2,0.5,0
		c0.2,0.1,0.2,0.4,0,0.5L3.4,23.6L3.4,23.6z M4.6,21c0.1-0.2,0.4-0.2,0.5,0c0.2,0.1,0.2,0.4,0,0.5l-0.2,0.3c-0.1,0.2-0.4,0.2-0.5,0
		s-0.2-0.4,0-0.5L4.6,21L4.6,21z M7.1,6.4C7.5,6.5,7.7,6.7,7.9,7C8.1,7.3,8.1,7.6,8,7.9C8,8.3,7.7,8.5,7.5,8.7
		C7.2,8.9,6.9,8.9,6.5,8.8v0C6.2,8.7,5.9,8.5,5.8,8.3l0,0C5.6,8,5.5,7.7,5.6,7.3C5.7,7,5.9,6.7,6.2,6.6h0C6.5,6.4,6.8,6.3,7.1,6.4
		L7.1,6.4L7.1,6.4z M7.3,7.4C7.2,7.2,7.1,7.1,7,7.1h0c-0.1,0-0.3,0-0.4,0.1l0,0C6.4,7.2,6.4,7.4,6.3,7.5c0,0.1,0,0.3,0.1,0.4v0
		C6.4,8,6.6,8.1,6.7,8.1h0c0.1,0,0.3,0,0.4-0.1C7.2,8,7.3,7.9,7.3,7.8C7.4,7.6,7.4,7.5,7.3,7.4L7.3,7.4z M4.6,3
		c0.4,0.1,0.8,0.4,1,0.7C5.8,4,5.9,4.5,5.8,4.9v0C5.7,5.3,5.4,5.7,5,5.9C4.7,6.1,4.2,6.2,3.8,6.1C3.4,6,3,5.7,2.8,5.3l0,0
		C2.6,5,2.5,4.5,2.7,4.1c0.1-0.4,0.4-0.8,0.7-1l0,0C3.7,2.9,4.2,2.8,4.6,3L4.6,3z M5,4.1C4.9,3.9,4.7,3.7,4.4,3.6
		C4.2,3.6,4,3.6,3.8,3.7v0C3.6,3.9,3.4,4.1,3.4,4.3C3.3,4.5,3.3,4.8,3.4,5h0C3.6,5.2,3.8,5.3,4,5.4c0.2,0.1,0.5,0,0.7-0.1
		C4.9,5.2,5,5,5.1,4.7h0C5.1,4.5,5.1,4.3,5,4.1L5,4.1z M8.3,4.4c0.2,0,0.3,0.2,0.4,0.3l0,0c0.1,0.2,0.1,0.3,0.1,0.5
		c0,0.2-0.2,0.3-0.3,0.4C8.3,5.8,8.1,5.9,7.9,5.8v0c-0.2,0-0.3-0.2-0.4-0.3l0,0C7.4,5.3,7.4,5.1,7.4,5c0-0.2,0.2-0.3,0.3-0.4
		C7.9,4.4,8.1,4.4,8.3,4.4L8.3,4.4L8.3,4.4z"/>
</g>
</svg>
