<!-- Generator: Adobe Illustrator 22.1.0, SVG Export Plug-In  -->
<svg version="1.1"
	 xmlns="http://www.w3.org/2000/svg" xmlns:xlink="http://www.w3.org/1999/xlink" xmlns:a="http://ns.adobe.com/AdobeSVGViewerExtensions/3.0/"
	 x="0px" y="0px" width="24.7px" height="21.6px" viewBox="0 0 24.7 21.6" style="enable-background:new 0 0 24.7 21.6;"
	 xml:space="preserve">
<defs>
</defs>
<g>
	<path d="M17.7,10.1c0,0.2-0.2,0.4-0.4,0.4c-0.2,0-0.4-0.2-0.4-0.4V9.8c0-0.2,0.2-0.4,0.4-0.4c0.2,0,0.4,0.2,0.4,0.4V10.1L17.7,10.1
		z M17.9,1.3h2.4c0.1-0.1,0.2-0.2,0.3-0.2c0.2,0,0.4,0.2,0.4,0.4v0.1c0,0.2-0.1,0.3-0.3,0.4C20.7,2,20.6,2,20.5,2h-2
		c0.1,0.1,0.1,0.2,0.1,0.3h1.6c0.1,0,0.1,0,0.2,0c0.1-0.1,0.2-0.2,0.3-0.2c0.2,0,0.4,0.2,0.4,0.4v0.4h1.6V1.4c0-0.2-0.1-0.4-0.2-0.5
		v0c-0.1-0.1-0.3-0.2-0.5-0.2h-0.2c-0.1,0-0.2,0-0.2,0c-0.1,0-0.1,0.1-0.2,0.1C21.2,1,20.9,1,20.8,0.8c-0.1-0.2-0.1-0.4,0.1-0.5
		c0.1-0.1,0.3-0.2,0.4-0.2C21.4,0,21.6,0,21.8,0H22c0.4,0,0.7,0.2,1,0.4l0,0c0.3,0.3,0.4,0.6,0.4,1v1.9v0.4H23h-0.2v8h1.6v0
		c0,0,0.1,0,0.1,0c0.2,0.1,0.3,0.3,0.2,0.5l-1.3,4c-0.4,1.1-1,2.2-1.9,3c-0.4,0.3-0.8,0.6-1.3,0.8c0,0,0,0,0,0l0.4,1.2
		c0.1,0.2-0.1,0.4-0.2,0.4c-0.2,0.1-0.4-0.1-0.4-0.2l-0.4-1.2c0,0,0,0,0-0.1c-0.3,0.1-0.6,0.1-0.9,0.1H6.1c-0.3,0-0.6,0-0.9-0.1
		c0,0,0,0,0,0.1l-0.4,1.2c-0.1,0.2-0.3,0.3-0.4,0.2c-0.2-0.1-0.3-0.3-0.2-0.4l0.4-1.2c0,0,0,0,0-0.1c-0.6-0.2-1.1-0.6-1.5-1
		c-0.7-0.7-1.3-1.7-1.7-2.7c0,0,0,0,0-0.1l-1.3-4c0,0,0-0.1,0-0.1c0-0.2,0.2-0.4,0.4-0.4h20.6v-8h-0.2h-0.4V3.3V3c0,0-0.1,0-0.1,0
		h-1.4c0,0.1,0,0.1,0,0.2c0,0.2-0.2,0.4-0.4,0.4s-0.4-0.2-0.4-0.4c0-0.5-0.2-1-0.6-1.4l0,0c-0.4-0.4-0.8-0.6-1.4-0.6h-0.4
		c-0.2,0-0.4,0-0.6,0.1c-0.2,0.1-0.4,0.2-0.6,0.3c-0.2,0.1-0.4,0.1-0.5-0.1c-0.1-0.2-0.1-0.4,0.1-0.5c0.2-0.2,0.5-0.3,0.8-0.4
		c0.3-0.1,0.6-0.2,0.9-0.2h0.4C16.8,0.6,17.5,0.8,17.9,1.3L17.9,1.3z M22.1,11.6v-8h-0.4v8H22.1L22.1,11.6z M2,15.9L2,15.9
		c0.4,0.9,0.9,1.8,1.5,2.5C4.2,19,5,19.5,6.1,19.5h12.4c1,0,1.8-0.3,2.5-0.9c0.8-0.7,1.3-1.7,1.7-2.7l1.2-3.5h-23L2,15.9L2,15.9z
		 M6.3,13c0.2,0,0.4,0.2,0.4,0.4c0,0.2-0.2,0.4-0.4,0.4H5.9c-0.2,0-0.4-0.2-0.4-0.4c0-0.2,0.2-0.4,0.4-0.4H6.3L6.3,13z M4.7,13
		c0.2,0,0.4,0.2,0.4,0.4c0,0.2-0.2,0.4-0.4,0.4H2.8L3.4,15c0.1,0.2,0,0.4-0.2,0.5s-0.4,0-0.5-0.2L2,13.5c0-0.1,0-0.1,0-0.2
		c0-0.2,0.2-0.4,0.4-0.4H4.7L4.7,13z M13.7,3.5c0,0.2-0.2,0.4-0.4,0.4c-0.2,0-0.4-0.2-0.4-0.4V3.2c0-0.2,0.2-0.4,0.4-0.4
		c0.2,0,0.4,0.2,0.4,0.4V3.5L13.7,3.5z M14.6,3.9c-0.2,0-0.4-0.2-0.4-0.4c0-0.2,0.2-0.4,0.4-0.4h2.7c0.2,0,0.4,0.2,0.4,0.4
		c0,0.2-0.2,0.4-0.4,0.4H14.6L14.6,3.9z M16,5.4c0,0.2-0.2,0.4-0.4,0.4c-0.2,0-0.4-0.2-0.4-0.4V5c0-0.2,0.2-0.4,0.4-0.4
		C15.9,4.6,16,4.8,16,5V5.4L16,5.4z M16,7.7c0,0.2-0.2,0.4-0.4,0.4c-0.2,0-0.4-0.2-0.4-0.4V7.4c0-0.2,0.2-0.4,0.4-0.4
		C15.9,7,16,7.2,16,7.4V7.7L16,7.7z M16,10.1c0,0.2-0.2,0.4-0.4,0.4c-0.2,0-0.4-0.2-0.4-0.4V9.8c0-0.2,0.2-0.4,0.4-0.4
		c0.2,0,0.4,0.2,0.4,0.4V10.1L16,10.1z M14.4,5.4c0,0.2-0.2,0.4-0.4,0.4s-0.4-0.2-0.4-0.4V5c0-0.2,0.2-0.4,0.4-0.4s0.4,0.2,0.4,0.4
		V5.4L14.4,5.4z M14.4,7.7c0,0.2-0.2,0.4-0.4,0.4s-0.4-0.2-0.4-0.4V7.4C13.7,7.2,13.8,7,14,7s0.4,0.2,0.4,0.4V7.7L14.4,7.7z
		 M14.4,10.1c0,0.2-0.2,0.4-0.4,0.4s-0.4-0.2-0.4-0.4V9.8c0-0.2,0.2-0.4,0.4-0.4s0.4,0.2,0.4,0.4V10.1L14.4,10.1z M17.7,5.4
		c0,0.2-0.2,0.4-0.4,0.4c-0.2,0-0.4-0.2-0.4-0.4V5c0-0.2,0.2-0.4,0.4-0.4c0.2,0,0.4,0.2,0.4,0.4V5.4L17.7,5.4z M17.7,7.7
		c0,0.2-0.2,0.4-0.4,0.4c-0.2,0-0.4-0.2-0.4-0.4V7.4C17,7.2,17.1,7,17.3,7c0.2,0,0.4,0.2,0.4,0.4V7.7L17.7,7.7z"/>
</g>
</svg>
