<!-- Generator: Adobe Illustrator 22.1.0, SVG Export Plug-In  -->
<svg version="1.1"
	 xmlns="http://www.w3.org/2000/svg" xmlns:xlink="http://www.w3.org/1999/xlink" xmlns:a="http://ns.adobe.com/AdobeSVGViewerExtensions/3.0/"
	 x="0px" y="0px" width="24.7px" height="17.6px" viewBox="0 0 24.7 17.6" style="enable-background:new 0 0 24.7 17.6;"
	 xml:space="preserve">
<defs>
</defs>
<g>
	<path d="M6.4,2.1c-0.2,0-0.4-0.2-0.4-0.4c0-0.2,0.2-0.4,0.4-0.4h0.2C6.8,1.4,7,1.5,7,1.7c0,0.2-0.2,0.4-0.4,0.4H6.4L6.4,2.1z
		 M11.3,7.2V4.9c0-0.1,0-0.1,0-0.1c0,0,0,0-0.1,0H7.6H5.7c0,0,0,0-0.1,0c0,0,0,0.1,0,0.1v2.3h1.2H11.3L11.3,7.2z M12,4.9v2.3h0.7
		V4.9c0-0.2,0.1-0.5,0.2-0.6C13.1,4.1,13.3,4,13.5,4h1.9H19c0.2,0,0.4,0.1,0.6,0.3c0.1,0.2,0.2,0.4,0.2,0.6v2.3h1.8V1.8
		c0-0.3-0.1-0.6-0.3-0.8c-0.2-0.2-0.4-0.3-0.6-0.3H9.1H3.9C3.7,0.7,3.5,0.8,3.3,1C3.1,1.2,3,1.5,3,1.8v5.3h1.8V4.9
		c0-0.2,0.1-0.5,0.2-0.6C5.2,4.1,5.4,4,5.7,4h1.9h3.6c0.2,0,0.4,0.1,0.6,0.3C11.9,4.5,12,4.7,12,4.9L12,4.9z M19.2,7.2V4.9
		c0-0.1,0-0.1,0-0.1c0,0,0,0-0.1,0h-3.6h-1.9c0,0,0,0-0.1,0c0,0,0,0.1,0,0.1v2.3H19.2L19.2,7.2z M4.5,15.6v0.7
		c0,0.4-0.1,0.7-0.4,0.9l0,0c-0.2,0.2-0.6,0.4-0.9,0.4h0c-0.4,0-0.7-0.1-0.9-0.4l0,0c-0.2-0.2-0.4-0.6-0.4-0.9v-0.7H0.4
		c-0.2,0-0.4-0.2-0.4-0.4v0V13v0v0v0V9c0-0.5,0.2-0.9,0.5-1.3c0.3-0.3,0.7-0.6,1.2-0.6h0.7V1.8c0-0.5,0.2-0.9,0.5-1.3
		C3,0.2,3.5,0,3.9,0h5.2h11.7c0.5,0,0.9,0.2,1.2,0.6c0.3,0.3,0.5,0.8,0.5,1.3v5.3h0.7c0.5,0,0.9,0.2,1.2,0.6
		c0.3,0.3,0.5,0.8,0.5,1.3v4v0v0v0v0v0v2.2c0,0.2-0.2,0.4-0.4,0.4h0h-1.6v0.7c0,0.4-0.1,0.7-0.4,0.9l0,0c-0.2,0.2-0.6,0.4-0.9,0.4h0
		c-0.4,0-0.7-0.1-0.9-0.4l0,0c-0.2-0.2-0.4-0.6-0.4-0.9v-0.7H4.5L4.5,15.6z M2.6,15.6v0.7c0,0.2,0.1,0.3,0.2,0.4l0,0
		c0.1,0.1,0.3,0.2,0.4,0.2h0c0.2,0,0.3-0.1,0.4-0.2l0,0c0.1-0.1,0.2-0.3,0.2-0.4v-0.7H2.6L2.6,15.6z M20.9,15.6v0.7
		c0,0.2,0.1,0.3,0.2,0.4l0,0c0.1,0.1,0.3,0.2,0.4,0.2h0c0.2,0,0.3-0.1,0.4-0.2l0,0c0.1-0.1,0.2-0.3,0.2-0.4v-0.7H20.9L20.9,15.6z
		 M24,12.6V9c0-0.3-0.1-0.6-0.3-0.8c-0.2-0.2-0.4-0.3-0.6-0.3h-1h0h-2.6h-6.5h-1.4h0H6.8H5.2h0h0H2.7h0h0h-1C1.4,7.9,1.2,8,1,8.2
		C0.8,8.4,0.7,8.7,0.7,9v3.6H24L24,12.6z M24,13.3H0.7v1.5h1.2h0.4h1.9h0.4h15.7h2.6H24V13.3L24,13.3z M2.1,10.4
		c0,0.2-0.2,0.4-0.4,0.4c-0.2,0-0.4-0.2-0.4-0.4V9.2c0-0.2,0.1-0.4,0.2-0.6C1.8,8.5,2,8.4,2.2,8.4h0.6c0.2,0,0.4,0.2,0.4,0.4
		S3,9.2,2.8,9.2H2.2c0,0,0,0-0.1,0c0,0,0,0,0,0.1V10.4L2.1,10.4z M4.2,9.2C4,9.2,3.8,9,3.8,8.8S4,8.4,4.2,8.4h0.2
		c0.2,0,0.4,0.2,0.4,0.4S4.6,9.2,4.4,9.2H4.2L4.2,9.2z M4.4,3.4c0,0.2-0.2,0.4-0.4,0.4c-0.2,0-0.4-0.2-0.4-0.4V2.2
		c0-0.2,0.1-0.4,0.2-0.6C4,1.5,4.2,1.4,4.5,1.4H5c0.2,0,0.4,0.2,0.4,0.4c0,0.2-0.2,0.4-0.4,0.4H4.5c0,0,0,0-0.1,0c0,0,0,0,0,0.1V3.4
		L4.4,3.4z"/>
</g>
</svg>
