<!-- Generator: Adobe Illustrator 22.1.0, SVG Export Plug-In  -->
<svg version="1.1"
	 xmlns="http://www.w3.org/2000/svg" xmlns:xlink="http://www.w3.org/1999/xlink" xmlns:a="http://ns.adobe.com/AdobeSVGViewerExtensions/3.0/"
	 x="0px" y="0px" width="24.7px" height="22.5px" viewBox="0 0 24.7 22.5" style="enable-background:new 0 0 24.7 22.5;"
	 xml:space="preserve">
<defs>
</defs>
<g>
	<path d="M1.5,21.8L1.5,21.8L1.5,21.8c0.2,0,0.4-0.1,0.5-0.2l0,0c0.1-0.1,0.2-0.3,0.2-0.5v-3.1c0-0.2,0.2-0.4,0.4-0.4
		c0.2,0,0.4,0.2,0.4,0.4V21c0,0.3-0.1,0.5-0.2,0.8h2.8h0h0.5h0h4.5c0.2,0,0.4-0.1,0.5-0.2l0,0c0.1-0.1,0.2-0.3,0.2-0.5v-2.4v-4v-4.1
		l-5.2,0l0,0H2.9v4.6c0,0.2-0.2,0.4-0.4,0.4c-0.2,0-0.4-0.2-0.4-0.4v-4.9v0c0-0.2,0.2-0.4,0.4-0.4h3.5l0,0l5.6,0l0,0
		c0.2,0,0.4,0.2,0.4,0.4v0.4H13V9.3c-0.3-0.2-0.5-0.4-0.7-0.6l0,0l0,0c-0.9-0.9-1.5-2.2-1.5-3.6c0-1.4,0.6-2.7,1.5-3.6l0,0
		C13.2,0.6,14.4,0,15.9,0c1.4,0,2.7,0.6,3.6,1.5C20.4,2.4,21,3.7,21,5.1c0,1.4-0.6,2.7-1.5,3.6l0,0C19.3,9,19,9.2,18.8,9.3v1.3h2
		c1.1,0,2.1,0.5,2.8,1.2l0,0l0,0c0.7,0.7,1.2,1.7,1.2,2.8v6.3c0,0.2-0.2,0.4-0.4,0.4c-0.2,0-0.4-0.2-0.4-0.4v-6.3
		c0-0.9-0.4-1.7-1-2.3c-0.6-0.6-1.4-1-2.3-1h-2V12c0,0.1-0.1,0.3-0.2,0.3l-2.3,1.4v0.9c0,0.2-0.2,0.4-0.4,0.4s-0.4-0.2-0.4-0.4v-0.9
		l-2.4-1.4C13,12.3,13,12.1,13,12h0v-0.7H12v3.3v4V21c0,0.4-0.2,0.8-0.4,1l0,0c-0.3,0.3-0.6,0.4-1,0.4H6.1h0H5.6h0H1.5h0h0
		c-0.4,0-0.8-0.2-1-0.4l0,0l0,0C0.2,21.8,0,21.4,0,21v-1.8c0-0.2,0.2-0.4,0.4-0.4h0h1.1c0.2,0,0.4,0.2,0.4,0.4
		c0,0.2-0.2,0.4-0.4,0.4H0.7V21c0,0.2,0.1,0.4,0.2,0.5C1.1,21.7,1.3,21.8,1.5,21.8L1.5,21.8z M18,9.7c-0.7,0.3-1.4,0.5-2.2,0.5
		c-0.8,0-1.5-0.2-2.2-0.5v2.1l2.2,1.3l2.2-1.3V9.7L18,9.7z M19,2c-0.8-0.8-1.9-1.3-3.1-1.3c-1.2,0-2.3,0.5-3.1,1.3v0
		c-0.2,0.2-0.3,0.3-0.4,0.5l2-0.6c0.1,0,0.2,0,0.2,0l0,0l2,0.8L17.9,2C18,2,18.1,2,18.2,2l1.3,0.7C19.4,2.5,19.2,2.2,19,2L19,2z
		 M11.8,3.4c-0.1,0.2-0.2,0.4-0.2,0.7l1.2,0.5h2h1.8h2L20.1,4c0-0.1,0-0.2-0.1-0.3l-2-1l-1.4,0.7c-0.1,0.1-0.2,0.1-0.3,0l-2-0.8
		L11.8,3.4L11.8,3.4z M11.5,4.8c0,0.1,0,0.2,0,0.3c0,1.2,0.5,2.3,1.3,3.1l0,0c0.8,0.8,1.9,1.3,3.1,1.3c1.2,0,2.3-0.5,3.1-1.3h0
		c0.8-0.8,1.3-1.9,1.3-3.1c0-0.1,0-0.2,0-0.4l-1.1,0.4v1.6c0,0.2,0,0.3-0.1,0.4l0,0c-0.1,0.2-0.2,0.3-0.4,0.3h-2
		c-0.2,0-0.4-0.1-0.4-0.3l0,0c0-0.1-0.1-0.3-0.1-0.4V5.3h-0.5v1.5c0,0.2,0,0.3-0.1,0.4c-0.1,0.2-0.2,0.3-0.4,0.3h-2
		c-0.2,0-0.4-0.1-0.4-0.3v0c0-0.1-0.1-0.3-0.1-0.4V5.2L11.5,4.8L11.5,4.8z M13.3,5.3v1.5l0,0h1.6l0,0V5.3h-0.1H13.3L13.3,5.3z
		 M16.8,5.3v1.5l0,0h1.6l0,0V5.3H16.8L16.8,5.3z M21.3,17.3c0-0.2,0.2-0.4,0.4-0.4c0.2,0,0.4,0.2,0.4,0.4v3.6c0,0.2-0.2,0.4-0.4,0.4
		c-0.2,0-0.4-0.2-0.4-0.4V17.3L21.3,17.3z M15.5,16.7c0-0.2,0.2-0.4,0.4-0.4s0.4,0.2,0.4,0.4v4.3c0,0.2-0.2,0.4-0.4,0.4
		s-0.4-0.2-0.4-0.4V16.7L15.5,16.7z M2.9,16.7c0,0.2-0.2,0.4-0.4,0.4c-0.2,0-0.4-0.2-0.4-0.4v-0.4c0-0.2,0.2-0.4,0.4-0.4
		c0.2,0,0.4,0.2,0.4,0.4V16.7L2.9,16.7z"/>
	<path d="M5.7,13.7v3l4.4-4.4l0,0l0,0c0,0,0.1-0.1,0.1-0.1v0c0.1,0,0.2,0,0.3,0.1c0,0,0.1,0.1,0.1,0.1l0,0c0,0.1,0.1,0.2,0.1,0.2
		v6.3c0,0.1,0,0.2-0.1,0.3c-0.1,0.1-0.2,0.1-0.3,0.1H5.7V20V20v0.5c0,0.2-0.1,0.3-0.2,0.4l0,0c-0.1,0.1-0.3,0.2-0.4,0.2H4.8
		c-0.2,0-0.3-0.1-0.4-0.2c-0.1-0.1-0.2-0.3-0.2-0.4V20V20v-0.7H3.9c-0.1,0-0.2,0-0.3-0.1l0,0c0,0-0.1-0.1-0.1-0.1
		C3.5,19,3.5,19,3.5,18.9l0,0h0c0-0.1,0-0.1,0.1-0.1l0,0l0.6-0.6v-4.4h0c0,0,0,0,0,0l0.5-2.3c0-0.1,0.1-0.2,0.2-0.2
		c0.1,0,0.3,0.1,0.3,0.2L5.7,13.7L5.7,13.7z M9.9,18.1c-0.1,0-0.2-0.1-0.2-0.2c0-0.1,0.1-0.2,0.2-0.2h0.3v-0.8H9.9
		c-0.1,0-0.2-0.1-0.2-0.2c0-0.1,0.1-0.2,0.2-0.2h0.3v-0.8H9.9c-0.1,0-0.2-0.1-0.2-0.2c0-0.1,0.1-0.2,0.2-0.2h0.3v-0.8H9.9
		c-0.1,0-0.2-0.1-0.2-0.2c0-0.1,0.1-0.2,0.2-0.2h0.3v-1l-6,6h6v-0.7H9.9L9.9,18.1z M8.6,15.5c0,0,0.1-0.1,0.1-0.1v0
		c0.1,0,0.2,0,0.2,0l0,0c0,0,0,0,0.1,0.1c0,0,0,0,0,0l0,0c0,0,0,0.1,0,0.1v2.2c0,0.1,0,0.2-0.1,0.2l0,0c-0.1,0.1-0.1,0.1-0.2,0.1
		H6.6c-0.1,0-0.1,0-0.2-0.1l0,0c0,0,0,0-0.1-0.1c0,0,0,0,0,0c0-0.1,0-0.1,0-0.2l0,0h0c0,0,0-0.1,0.1-0.1l0,0L8.6,15.5L8.6,15.5
		L8.6,15.5L8.6,15.5z M8.6,17.7v-1.6L7,17.7H8.6L8.6,17.7z M6.3,18.1c0-0.1,0-0.1,0-0.2L6.3,18.1L6.3,18.1z M5.2,17.1v-3.4l-0.2-1.2
		l-0.2,1.2v3.9L5.2,17.1L5.2,17.1z M5.2,19.3H4.7V20V20v0.5c0,0,0,0.1,0,0.1c0,0,0.1,0,0.1,0h0.3c0,0,0.1,0,0.1,0l0,0
		c0,0,0-0.1,0-0.1V20V20V19.3L5.2,19.3z"/>
</g>
</svg>
