<!-- Generator: Adobe Illustrator 22.1.0, SVG Export Plug-In  -->
<svg version="1.1"
	 xmlns="http://www.w3.org/2000/svg" xmlns:xlink="http://www.w3.org/1999/xlink" xmlns:a="http://ns.adobe.com/AdobeSVGViewerExtensions/3.0/"
	 x="0px" y="0px" width="24.7px" height="22.2px" viewBox="0 0 24.7 22.2" style="enable-background:new 0 0 24.7 22.2;"
	 xml:space="preserve">
<defs>
</defs>
<g>
	<path d="M15.4,16.7c0-0.2,0.2-0.4,0.4-0.4c0.2,0,0.4,0.2,0.4,0.4V21c0,0.2-0.2,0.4-0.4,0.4c-0.2,0-0.4-0.2-0.4-0.4V16.7L15.4,16.7z
		 M6.1,21.5h4.4c0.2,0,0.4-0.1,0.5-0.2l0,0l0,0c0.1-0.1,0.2-0.3,0.2-0.5v-2.3v-4v-4l-5.2,0l0,0H2.9v4.5c0,0.2-0.2,0.4-0.4,0.4
		s-0.4-0.2-0.4-0.4V10v0c0-0.2,0.2-0.4,0.4-0.4H6l0,0l5.5,0l0,0c0.2,0,0.4,0.2,0.4,0.4v0.6h0.9V9.4c-0.3-0.2-0.5-0.4-0.7-0.6
		c-0.9-0.9-1.5-2.2-1.5-3.6c0-1.4,0.6-2.7,1.5-3.6C13.1,0.6,14.4,0,15.8,0c1.4,0,2.7,0.6,3.6,1.5l0,0c0.9,0.9,1.5,2.2,1.5,3.6
		c0,1.4-0.6,2.7-1.5,3.6C19.2,9,19,9.2,18.7,9.4v1.2h2c1.1,0,2.1,0.5,2.8,1.2l0,0c0.7,0.7,1.2,1.7,1.2,2.8V21c0,0.2-0.2,0.4-0.4,0.4
		c-0.2,0-0.4-0.2-0.4-0.4v-6.3c0-0.9-0.4-1.7-1-2.3l0,0c-0.6-0.6-1.4-1-2.3-1h-2V12c0,0.1-0.1,0.3-0.2,0.3l-2.4,1.4v0.9
		c0,0.2-0.2,0.4-0.4,0.4c-0.2,0-0.4-0.2-0.4-0.4v-0.9l-2.4-1.4c-0.1-0.1-0.2-0.2-0.2-0.3h0v-0.7h-0.9v3.1v4v2.3c0,0.4-0.2,0.8-0.4,1
		l0,0c-0.3,0.3-0.6,0.4-1,0.4H6.1h0H5.5h0h-4h0h0c-0.4,0-0.8-0.2-1-0.4c-0.3-0.3-0.4-0.6-0.4-1v-1.8c0-0.2,0.2-0.4,0.4-0.4h0h1.1
		c0.2,0,0.4,0.2,0.4,0.4c0,0.2-0.2,0.4-0.4,0.4H0.7v1.5c0,0.2,0.1,0.4,0.2,0.5c0.1,0.1,0.3,0.2,0.5,0.2h0h0c0.2,0,0.4-0.1,0.5-0.2
		c0.1-0.1,0.2-0.3,0.2-0.5v-3.1c0-0.2,0.2-0.4,0.4-0.4s0.4,0.2,0.4,0.4v3.1c0,0.3-0.1,0.5-0.2,0.7h2.8h0H6.1L6.1,21.5L6.1,21.5z
		 M2.9,16.4c0,0.2-0.2,0.4-0.4,0.4s-0.4-0.2-0.4-0.4V16c0-0.2,0.2-0.4,0.4-0.4s0.4,0.2,0.4,0.4V16.4L2.9,16.4z M9.4,15.9v3.3
		c0,0.2-0.1,0.3-0.3,0.3h0H5.1c-0.2,0-0.3-0.1-0.3-0.3v0v-3.3H4.4c-0.2,0-0.3-0.1-0.3-0.3c0-0.1,0-0.1,0.1-0.2l2.7-3.6
		c0.1-0.1,0.3-0.2,0.4-0.1c0,0,0,0,0.1,0.1l2.7,3.6c0.1,0.1,0.1,0.3-0.1,0.4c-0.1,0-0.1,0.1-0.2,0.1v0H9.4L9.4,15.9z M5.4,15.9v3
		h3.4v-3H5.4L5.4,15.9z M7.1,12.5L5,15.3h0.1h0h0h3.9h0h0.1L7.1,12.5L7.1,12.5z M6.5,16.5L6.5,16.5h1.3c0.2,0,0.3,0.1,0.3,0.3v0V18
		c0,0.2-0.1,0.3-0.3,0.3h0H6.5c-0.2,0-0.3-0.1-0.3-0.3v0v-1.2C6.2,16.7,6.3,16.5,6.5,16.5L6.5,16.5z M7.5,17.1H6.8v0.6h0.7V17.1
		L7.5,17.1z M18,9.8c-0.7,0.3-1.4,0.5-2.2,0.5c-0.8,0-1.5-0.2-2.2-0.5v2l2.2,1.3l2.2-1.3V9.8L18,9.8z M18.9,2
		c-0.8-0.8-1.9-1.3-3.1-1.3c-1.2,0-2.3,0.5-3.1,1.3c-0.2,0.2-0.3,0.3-0.4,0.5l2-0.6c0.1,0,0.2,0,0.2,0l0,0l2,0.8l1.4-0.7
		C18,2,18.1,2,18.2,2.1l1.3,0.7C19.3,2.5,19.1,2.2,18.9,2L18.9,2L18.9,2z M11.7,3.4c-0.1,0.2-0.2,0.5-0.2,0.8l1.3,0.4h2h1.9h2
		l1.5-0.5c0-0.1,0-0.2-0.1-0.3l-2-1l-1.4,0.7c-0.1,0.1-0.2,0.1-0.3,0l-2-0.8L11.7,3.4L11.7,3.4z M11.4,4.9c0,0.1,0,0.2,0,0.2
		c0,1.2,0.5,2.3,1.3,3.1s1.9,1.3,3.1,1.3c1.2,0,2.3-0.5,3.1-1.3c0.8-0.8,1.3-1.9,1.3-3.1c0-0.1,0-0.3,0-0.4l-1.2,0.4v1.6
		c0,0.2,0,0.3-0.1,0.4v0c-0.1,0.2-0.2,0.3-0.4,0.3h-2c-0.2,0-0.4-0.1-0.4-0.3c0-0.1-0.1-0.3-0.1-0.4V5.3h-0.5v1.5
		c0,0.2,0,0.3-0.1,0.4v0c-0.1,0.2-0.2,0.3-0.4,0.3h-2c-0.2,0-0.4-0.1-0.4-0.3c0-0.1-0.1-0.3-0.1-0.4V5.3L11.4,4.9L11.4,4.9z
		 M13.2,5.3v1.5l0,0h1.6l0,0V5.3h-0.1H13.2L13.2,5.3z M16.8,5.3v1.5l0,0h1.6l0,0V5.3H16.8L16.8,5.3z M21.3,17.3
		c0-0.2,0.2-0.4,0.4-0.4s0.4,0.2,0.4,0.4V21c0,0.2-0.2,0.4-0.4,0.4s-0.4-0.2-0.4-0.4V17.3L21.3,17.3z"/>
</g>
</svg>
