<!-- Generator: Adobe Illustrator 22.1.0, SVG Export Plug-In  -->
<svg version="1.1"
	 xmlns="http://www.w3.org/2000/svg" xmlns:xlink="http://www.w3.org/1999/xlink" xmlns:a="http://ns.adobe.com/AdobeSVGViewerExtensions/3.0/"
	 x="0px" y="0px" width="22.8px" height="24.7px" viewBox="0 0 22.8 24.7" style="enable-background:new 0 0 22.8 24.7;"
	 xml:space="preserve">
<defs>
</defs>
<g>
	<path d="M11,3.3c0.1-0.2,0.3-0.2,0.5-0.2c0.2,0.1,0.2,0.3,0.2,0.5L9.8,7.1C9.7,7.3,9.5,7.3,9.3,7.2C9.1,7.2,9,6.9,9.1,6.8L11,3.3
		L11,3.3z M10.8,0h6.9c0.2,0,0.4,0.2,0.4,0.4c0,0.1,0,0.2-0.1,0.2l-5.2,7.5h5.2c0.2,0,0.4,0.2,0.4,0.4c0,0.1,0,0.2-0.1,0.3L5.2,24.6
		c-0.1,0.2-0.4,0.2-0.5,0c-0.1-0.1-0.2-0.3-0.1-0.4h0L9.2,13H4.7c-0.2,0-0.4-0.2-0.4-0.4c0-0.1,0-0.1,0-0.2l6.1-12.3
		C10.6,0.1,10.7,0,10.8,0L10.8,0L10.8,0z M17.1,0.7h-6L5.3,12.3h4.4v0c0,0,0.1,0,0.1,0c0.2,0.1,0.3,0.3,0.2,0.5l-3.9,9.5L17.3,8.8
		h-5.1v0c-0.1,0-0.1,0-0.2-0.1c-0.2-0.1-0.2-0.3-0.1-0.5L17.1,0.7L17.1,0.7z M0.7,11c0,0.2-0.1,0.4-0.3,0.4c-0.2,0-0.4-0.1-0.4-0.3
		c-0.1-1,0.1-2.2,0.6-3.4c0.5-1.3,1.3-2.6,1.9-3C2.7,4.5,3,4.6,3.1,4.7C3.2,4.9,3.2,5.1,3,5.2C2.5,5.6,1.8,6.7,1.3,7.9
		C0.9,9,0.6,10.1,0.7,11L0.7,11z M6.5,2.7c-0.2,0.1-0.4,0-0.5-0.2s0-0.4,0.2-0.5L6.5,2c0.1,0,0.2-0.1,0.3-0.1c0.2-0.1,0.4,0,0.5,0.2
		c0.1,0.2,0,0.4-0.2,0.5C7,2.5,6.9,2.6,6.8,2.6C6.7,2.7,6.6,2.7,6.5,2.7L6.5,2.7z M17.8,3.8c-0.2-0.1-0.2-0.3-0.1-0.5
		c0.1-0.2,0.3-0.2,0.5-0.1c1.5,1.1,2.6,2.5,3.4,4c0.8,1.6,1.2,3.4,1.2,5.2c0,3.2-1.3,6-3.4,8.1c-2.1,2.1-5,3.4-8.1,3.4
		c-0.5,0-1,0-1.4-0.1c-0.5-0.1-0.9-0.1-1.4-0.3c-0.2,0-0.3-0.2-0.3-0.4c0-0.2,0.2-0.3,0.4-0.3C9.1,23,9.5,23,9.9,23.1
		c0.4,0.1,0.9,0.1,1.3,0.1c3,0,5.7-1.2,7.6-3.2c1.9-1.9,3.2-4.6,3.2-7.6c0-1.7-0.4-3.4-1.1-4.9C20.2,6.1,19.2,4.8,17.8,3.8L17.8,3.8
		z M4.1,20.5c0.1,0.1,0.2,0.4,0,0.5c-0.1,0.1-0.4,0.2-0.5,0c-0.8-0.7-1.5-1.6-2.1-2.5c-0.6-0.9-1-1.9-1.3-3
		c-0.1-0.2,0.1-0.4,0.2-0.4s0.4,0.1,0.4,0.2c0.3,1,0.7,1.9,1.2,2.8C2.7,19,3.4,19.8,4.1,20.5L4.1,20.5z M12.4,2.2
		c-0.1,0.2-0.3,0.2-0.5,0.2s-0.2-0.3-0.2-0.5l0.1-0.1c0.1-0.2,0.3-0.2,0.5-0.2c0.2,0.1,0.2,0.3,0.2,0.5L12.4,2.2L12.4,2.2z"/>
</g>
</svg>
