<!-- Generator: Adobe Illustrator 22.1.0, SVG Export Plug-In  -->
<svg version="1.1"
	 xmlns="http://www.w3.org/2000/svg" xmlns:xlink="http://www.w3.org/1999/xlink" xmlns:a="http://ns.adobe.com/AdobeSVGViewerExtensions/3.0/"
	 x="0px" y="0px" width="23.5px" height="23.5px" viewBox="0 0 23.5 23.5" style="enable-background:new 0 0 23.5 23.5;"
	 xml:space="preserve">
<defs>
</defs>
<g>
	<path d="M3.5,6.8c0,0.2-0.2,0.4-0.4,0.4S2.7,7,2.7,6.8V6c0-0.2,0.2-0.4,0.4-0.4S3.5,5.8,3.5,6V6.8L3.5,6.8z M4.3,0h14.9
		c1.2,0,2.3,0.5,3.1,1.3l0,0c0.8,0.8,1.3,1.9,1.3,3v14.9c0,1.2-0.5,2.3-1.3,3.1c-0.8,0.8-1.9,1.3-3.1,1.3h-6.4
		c-0.2,0-0.4-0.2-0.4-0.4v0v-8.7c0-0.2,0.2-0.4,0.4-0.4h0h3.1v-2.5h-3.3c-0.2,0-0.4-0.2-0.4-0.4v0v-0.1c0-0.5,0-0.9,0.1-1.3
		c0.1-0.4,0.3-0.7,0.5-0.9l0,0l0,0c0.2-0.2,0.5-0.4,0.9-0.5c0.3-0.1,0.8-0.1,1.3-0.1c0.2,0,0.4,0,0.6,0c0.2,0,0.4,0.1,0.6,0.1l0,0
		c0.2,0,0.3,0.1,0.5,0.1c0.1,0,0.2,0,0.2,0.1V5.9c-0.1,0-0.2,0-0.4-0.1c-0.2,0-0.5-0.1-0.8-0.1h0c-0.3,0-0.6,0-0.9-0.1
		c-0.3,0-0.6,0-1,0C12,5.7,10.7,6.1,9.8,7C9.4,7.4,9,7.9,8.8,8.5c-0.2,0.6-0.3,1.4-0.3,2.3v0.4c0,0.2-0.2,0.4-0.4,0.4h0H6.7v2.5h1.5
		c0.2,0,0.4,0.2,0.4,0.4v0v8.7c0,0.2-0.2,0.4-0.4,0.4h0H4.3c-1.2,0-2.3-0.5-3.1-1.3l0,0C0.5,21.5,0,20.4,0,19.2V4.3
		c0-1.2,0.5-2.3,1.3-3.1l0,0l0,0l0,0C2.1,0.5,3.1,0,4.3,0L4.3,0z M19.2,0.7H4.3c-1,0-1.9,0.4-2.6,1.1l0,0C1.1,2.4,0.7,3.3,0.7,4.3
		v14.9c0,1,0.4,1.9,1.1,2.6l0,0l0,0c0.7,0.7,1.6,1.1,2.6,1.1h3.4v-8H6.3h0c-0.2,0-0.4-0.2-0.4-0.4v-3.2v0c0-0.2,0.2-0.4,0.4-0.4h1.5
		v0c0-0.9,0.1-1.8,0.4-2.5c0.3-0.7,0.6-1.3,1.2-1.8c1-1,2.5-1.5,4.6-1.5c0.3,0,0.6,0,1,0c0.3,0,0.6,0,0.9,0.1c0.3,0,0.6,0.1,0.8,0.1
		c0.3,0,0.5,0.1,0.7,0.1c0.2,0,0.3,0.2,0.3,0.4V9v0c0,0.2-0.2,0.4-0.4,0.4h-0.4v0c0,0-0.1,0-0.1,0c-0.1,0-0.2-0.1-0.3-0.1
		c-0.1,0-0.3-0.1-0.5-0.1l0,0c-0.2,0-0.3-0.1-0.5-0.1c-0.2,0-0.3,0-0.5,0c-0.4,0-0.8,0-1.1,0.1c-0.3,0.1-0.4,0.2-0.6,0.3l0,0
		c-0.1,0.1-0.2,0.3-0.3,0.6c-0.1,0.2-0.1,0.5-0.1,0.8h3.3h0c0.2,0,0.4,0.2,0.4,0.4v3.2v0c0,0.2-0.2,0.4-0.4,0.4h-3.1v8h6.1
		c1,0,1.9-0.4,2.6-1.1s1.1-1.6,1.1-2.6V4.3c0-1-0.4-1.9-1-2.5l0,0C21.1,1.1,20.2,0.7,19.2,0.7L19.2,0.7z M3.5,4.3
		c0,0.2-0.2,0.4-0.4,0.4S2.7,4.5,2.7,4.3c0-0.5,0.2-1.1,0.5-1.5C3.5,2.4,4,2.1,4.5,2.1h4.4c0.2,0,0.4,0.2,0.4,0.4
		c0,0.2-0.2,0.4-0.4,0.4H4.5C4.2,2.9,4,3,3.8,3.2C3.6,3.5,3.5,3.9,3.5,4.3L3.5,4.3z"/>
</g>
</svg>
