<!-- Generator: Adobe Illustrator 22.1.0, SVG Export Plug-In  -->
<svg version="1.1"
	 xmlns="http://www.w3.org/2000/svg" xmlns:xlink="http://www.w3.org/1999/xlink" xmlns:a="http://ns.adobe.com/AdobeSVGViewerExtensions/3.0/"
	 x="0px" y="0px" width="28.9px" height="24.7px" viewBox="0 0 28.9 24.7" style="enable-background:new 0 0 28.9 24.7;"
	 xml:space="preserve">
<defs>
</defs>
<g>
	<path d="M18,24L18,24h6.5l0,0l0,0l0,0c-0.5-0.5-0.8-1.1-0.8-1.8v-6.3c0-0.2,0.2-0.4,0.4-0.4s0.4,0.2,0.4,0.4v6.3
		c0,0.5,0.2,1,0.6,1.3l0,0c0.3,0.3,0.8,0.5,1.3,0.5c0.5,0,1-0.2,1.3-0.6c0.3-0.3,0.6-0.8,0.6-1.3v-3.3h-2.7c-0.2,0-0.4-0.2-0.4-0.4
		s0.2-0.4,0.4-0.4h3.1h0c0.2,0,0.4,0.2,0.4,0.4v3.7c0,0.7-0.3,1.4-0.8,1.8c-0.5,0.5-1.1,0.8-1.8,0.8h0H18h0H17h0H8
		c-0.7,0-1.4-0.3-1.8-0.8c-0.5-0.5-0.8-1.1-0.8-1.8v-4.7V9.3V0.4C5.4,0.2,5.6,0,5.8,0l0,0L17,0l0,0h7c0.2,0,0.4,0.2,0.4,0.4v0v11.7
		c0,0.2-0.2,0.4-0.4,0.4s-0.4-0.2-0.4-0.4V0.7h-6.6l0,0l-10.9,0v8.5v8.1v4.7c0,0.5,0.2,1,0.6,1.3C7,23.8,7.5,24,8,24h9h0H18L18,24z
		 M15.4,18.2v1.1h1.1c0.2,0,0.4-0.1,0.6-0.2l0,0c0.2-0.2,0.2-0.4,0.2-0.6v-0.2H15.4L15.4,18.2z M14.6,19.2v-1.1h-1.9v0.2
		c0,0.2,0.1,0.4,0.2,0.6l0,0c0.2,0.2,0.4,0.2,0.6,0.2H14.6L14.6,19.2z M12.7,17.5h4.6V16c0-0.2-0.1-0.4-0.2-0.6l0,0l0,0
		c-0.2-0.2-0.4-0.2-0.6-0.2h-2.9c-0.2,0-0.4,0.1-0.6,0.2c-0.2,0.2-0.2,0.4-0.2,0.6V17.5L12.7,17.5z M14.9,9.3
		c-0.2,0-0.4-0.2-0.4-0.4s0.2-0.4,0.4-0.4H15c0.2,0,0.4,0.2,0.4,0.4S15.2,9.3,15,9.3H14.9L14.9,9.3z M13.8,9.8
		c0,0.2-0.2,0.4-0.4,0.4c-0.2,0-0.4-0.2-0.4-0.4V9.2c0-0.2,0.1-0.3,0.2-0.4c0,0,0,0,0,0c0.1-0.1,0.2-0.1,0.4-0.1H14
		c0.2,0,0.4,0.2,0.4,0.4S14.2,9.3,14,9.3h-0.2V9.8L13.8,9.8z M13.3,7.6h3.4c0.3,0,0.6,0.1,0.8,0.3c0.2,0.2,0.3,0.5,0.3,0.8v1.7
		c0,0.3-0.1,0.6-0.3,0.8l0,0c-0.2,0.2-0.5,0.3-0.8,0.3h-3.4c-0.3,0-0.6-0.1-0.8-0.3l0,0c-0.2-0.2-0.3-0.5-0.3-0.8V8.8
		c0-0.3,0.1-0.6,0.3-0.8l0,0C12.7,7.8,13,7.6,13.3,7.6L13.3,7.6z M16.7,8.4h-3.4c-0.1,0-0.2,0-0.3,0.1l0,0c-0.1,0.1-0.1,0.2-0.1,0.3
		v1.7c0,0.1,0,0.2,0.1,0.3l0,0c0.1,0.1,0.2,0.1,0.3,0.1h3.4c0.1,0,0.2,0,0.3-0.1l0,0c0.1-0.1,0.1-0.2,0.1-0.3V8.8
		c0-0.1-0.1-0.2-0.1-0.3C17,8.4,16.8,8.4,16.7,8.4L16.7,8.4z M14.9,16.2c-0.2,0-0.4-0.2-0.4-0.4c0-0.2,0.2-0.4,0.4-0.4H15
		c0.2,0,0.4,0.2,0.4,0.4c0,0.2-0.2,0.4-0.4,0.4H14.9L14.9,16.2z M13.7,16.7c0,0.2-0.2,0.4-0.4,0.4S13,16.9,13,16.7V16
		c0-0.2,0.1-0.3,0.2-0.4c0,0,0,0,0,0c0.1-0.1,0.2-0.1,0.4-0.1h0.3c0.2,0,0.4,0.2,0.4,0.4c0,0.2-0.2,0.4-0.4,0.4h-0.2V16.7L13.7,16.7
		z M13.5,14.4h2.9c0.4,0,0.8,0.2,1.1,0.5l0,0l0,0c0.3,0.3,0.5,0.7,0.5,1.1v2.4c0,0.4-0.2,0.8-0.5,1.1l0,0c-0.3,0.3-0.7,0.4-1.1,0.4
		h-2.9c-0.4,0-0.8-0.2-1.1-0.5l0,0l0,0c-0.3-0.3-0.5-0.7-0.5-1.1V16c0-0.4,0.2-0.8,0.5-1.1C12.7,14.6,13.1,14.4,13.5,14.4L13.5,14.4
		z M7.6,12.2l7.1-9.6c0.1-0.2,0.3-0.2,0.5-0.1c0,0,0.1,0,0.1,0.1l7.1,9.6c0.1,0.2,0.1,0.4-0.1,0.5c-0.1,0-0.1,0.1-0.2,0.1v0h-1.5
		v9.2c0,0.2-0.2,0.4-0.4,0.4h0H9.8c-0.2,0-0.4-0.2-0.4-0.4v0v-9.2H7.9c-0.2,0-0.4-0.2-0.4-0.4C7.5,12.3,7.5,12.2,7.6,12.2L7.6,12.2z
		 M15,3.4l-6.4,8.7h1.2h0h0h10.5h0h1.2L15,3.4L15,3.4z M19.9,12.8h-9.8v8.8h9.8V12.8L19.9,12.8z M26.6,23.3
		c-0.2,0.1-0.4-0.1-0.4-0.2c-0.1-0.2,0.1-0.4,0.2-0.4c0.2-0.1,0.4-0.2,0.5-0.4c0.1-0.2,0.2-0.4,0.2-0.6c0-0.2,0.2-0.4,0.4-0.4
		c0.2,0,0.4,0.2,0.4,0.4c0,0.4-0.1,0.7-0.3,1C27.3,23,26.9,23.2,26.6,23.3L26.6,23.3z M27.8,20.4c0,0.2-0.2,0.4-0.4,0.4
		c-0.2,0-0.4-0.2-0.4-0.4v-0.6c0-0.2,0.2-0.4,0.4-0.4c0.2,0,0.4,0.2,0.4,0.4V20.4L27.8,20.4z M0.7,21.9h1.7V7.4c0,0,0,0-0.1,0
		c-0.2,0.1-0.4,0-0.5-0.2L1.8,7L1.5,7.3l0,0C1.3,7.5,1.1,7.5,1,7.3L0.7,7.1V21.9L0.7,21.9z M3.1,21.9L3.1,21.9l0,0.4v1.2
		c0,0.3-0.1,0.7-0.4,0.9l0,0c-0.2,0.2-0.5,0.4-0.9,0.4H1.3c-0.3,0-0.7-0.1-0.9-0.4l0,0C0.1,24.1,0,23.7,0,23.4v-1.2v-0.1v-0.2V6.3h0
		c0,0,0,0,0-0.1l1.2-5.7l0,0l0,0c0-0.1,0.1-0.2,0.3-0.3c0.2,0,0.4,0.1,0.4,0.3l1.2,5.7V21.9L3.1,21.9z M2.4,22.6H0.7v0.8
		c0,0.1,0.1,0.3,0.2,0.4h0c0.1,0.1,0.2,0.2,0.4,0.2h0.6c0.1,0,0.3-0.1,0.4-0.2h0c0.1-0.1,0.2-0.2,0.2-0.4V22.6L2.4,22.6z M0.8,6.2
		l0.4,0.4l0.5-0.5C1.8,5.9,2,5.9,2.1,6c0.1,0,0.1,0.1,0.1,0.2l0.1,0.2l0.1-0.1L1.6,2.4L0.8,6.2L0.8,6.2z M24.4,14.4
		c0,0.2-0.2,0.4-0.4,0.4s-0.4-0.2-0.4-0.4v-0.8c0-0.2,0.2-0.4,0.4-0.4s0.4,0.2,0.4,0.4V14.4L24.4,14.4z"/>
</g>
</svg>
