<!-- Generator: Adobe Illustrator 22.1.0, SVG Export Plug-In  -->
<svg version="1.1"
	 xmlns="http://www.w3.org/2000/svg" xmlns:xlink="http://www.w3.org/1999/xlink" xmlns:a="http://ns.adobe.com/AdobeSVGViewerExtensions/3.0/"
	 x="0px" y="0px" width="18.6px" height="24.7px" viewBox="0 0 18.6 24.7" style="enable-background:new 0 0 18.6 24.7;"
	 xml:space="preserve">
<defs>
</defs>
<g>
	<path d="M2.7,12.1L2.7,12.1h13.1h0h1.7L9.3,1L1.1,12.1H2.7L2.7,12.1L2.7,12.1z M8.3,16.5c0,0.7-0.1,1.1-0.4,1.5
		c-0.3,0.3-0.7,0.5-1.2,0.5c-0.3,0-0.6-0.1-0.8-0.2c-0.2-0.1-0.4-0.3-0.6-0.6S5,16.9,5,16.5c0-0.4,0.1-0.8,0.2-1.1
		c0.1-0.3,0.3-0.5,0.5-0.7c0.2-0.2,0.5-0.2,0.9-0.2c0.3,0,0.5,0,0.7,0.1c0.2,0.1,0.4,0.2,0.5,0.4c0.1,0.2,0.2,0.4,0.3,0.6
		C8.2,15.8,8.3,16.1,8.3,16.5L8.3,16.5z M7.3,16.4c0-0.5,0-0.8-0.1-1c-0.1-0.2-0.3-0.3-0.5-0.3c-0.2,0-0.3,0-0.4,0.1
		c-0.1,0.1-0.2,0.2-0.2,0.4C6,15.9,6,16.1,6,16.4c0,0.3,0,0.6,0.1,0.8c0,0.2,0.1,0.3,0.2,0.4c0.1,0.1,0.2,0.1,0.4,0.1
		c0.3,0,0.4-0.1,0.5-0.3C7.3,17.2,7.3,16.9,7.3,16.4L7.3,16.4z M13.6,20.2c0,0.7-0.1,1.1-0.4,1.5c-0.3,0.3-0.7,0.5-1.2,0.5
		c-0.3,0-0.6-0.1-0.8-0.2c-0.2-0.1-0.4-0.3-0.6-0.6c-0.1-0.3-0.2-0.6-0.2-1.1c0-0.7,0.1-1.2,0.4-1.5c0.3-0.3,0.7-0.5,1.2-0.5
		c0.3,0,0.5,0,0.7,0.1c0.2,0.1,0.4,0.2,0.5,0.4c0.1,0.2,0.2,0.4,0.3,0.6C13.5,19.6,13.6,19.9,13.6,20.2L13.6,20.2z M12.6,20.1
		c0-0.4,0-0.8-0.1-1c-0.1-0.2-0.3-0.3-0.5-0.3c-0.2,0-0.3,0-0.4,0.1c-0.1,0.1-0.2,0.2-0.2,0.4c0,0.2-0.1,0.4-0.1,0.7
		c0,0.5,0,0.8,0.1,1c0.1,0.2,0.3,0.3,0.5,0.3c0.3,0,0.4-0.1,0.5-0.3C12.6,21,12.6,20.6,12.6,20.1L12.6,20.1z M11.7,15.2l-4.3,6.9
		c-0.1,0.2-0.2,0.3-0.4,0.3c-0.1,0-0.2,0-0.2-0.1c-0.1-0.1-0.1-0.1-0.1-0.2c0-0.1,0-0.2,0.1-0.3l4.3-7c0.1-0.1,0.1-0.2,0.2-0.3
		c0.1-0.1,0.1-0.1,0.2-0.1c0.1,0,0.2,0,0.3,0.1c0.1,0.1,0.1,0.1,0.1,0.2C11.9,14.8,11.9,14.9,11.7,15.2L11.7,15.2z M9.7,9.5v1h1
		c0.2,0,0.4-0.1,0.5-0.2l0,0c0.1-0.1,0.2-0.3,0.2-0.6V9.5H9.7L9.7,9.5z M8.9,10.5v-1H7.1v0.2c0,0.2,0.1,0.4,0.2,0.6
		c0.1,0.1,0.3,0.2,0.6,0.2H8.9L8.9,10.5z M7.1,8.8h4.4V7.3c0-0.2-0.1-0.4-0.2-0.6l0,0c-0.1-0.1-0.3-0.2-0.6-0.2H7.9
		c-0.2,0-0.4,0.1-0.6,0.2C7.2,6.9,7.1,7.1,7.1,7.3V8.8L7.1,8.8z M9.2,7.6C9,7.6,8.9,7.4,8.9,7.2C8.9,7,9,6.8,9.2,6.8h0.1
		c0.2,0,0.4,0.2,0.4,0.4c0,0.2-0.2,0.4-0.4,0.4H9.2L9.2,7.6z M8.1,8c0,0.2-0.2,0.4-0.4,0.4C7.5,8.4,7.4,8.2,7.4,8V7.4
		c0-0.2,0.1-0.3,0.2-0.4l0,0l0,0C7.7,6.9,7.8,6.8,8,6.8h0.3c0.2,0,0.4,0.2,0.4,0.4c0,0.2-0.2,0.4-0.4,0.4H8.1V8L8.1,8z M7.9,5.8h2.8
		c0.4,0,0.8,0.2,1.1,0.4l0,0l0,0c0.3,0.3,0.4,0.7,0.4,1.1v2.4c0,0.4-0.2,0.8-0.4,1.1l0,0c-0.3,0.3-0.6,0.4-1,0.4H7.9
		c-0.4,0-0.8-0.2-1.1-0.4c-0.3-0.3-0.4-0.7-0.4-1.1V7.3c0-0.4,0.2-0.8,0.4-1.1C7.1,6,7.5,5.8,7.9,5.8L7.9,5.8z M16.2,12.8v10.6
		c0,0.4-0.1,0.7-0.4,0.9l0,0c-0.2,0.2-0.6,0.4-0.9,0.4H3.7c-0.4,0-0.7-0.1-0.9-0.4l0,0c-0.2-0.2-0.4-0.6-0.4-0.9V12.8h-2
		c-0.2,0-0.4-0.2-0.4-0.4c0-0.1,0-0.2,0.1-0.2L9,0.1C9.1,0,9.4,0,9.5,0.1c0,0,0.1,0,0.1,0.1l8.9,12.1c0.1,0.2,0.1,0.4-0.1,0.5
		c-0.1,0-0.1,0.1-0.2,0.1v0H16.2L16.2,12.8z M15.5,12.8H3.1v10.6c0,0.2,0.1,0.3,0.2,0.4l0,0l0,0C3.4,23.9,3.5,24,3.7,24h11.2
		c0.2,0,0.3-0.1,0.4-0.2l0,0c0.1-0.1,0.2-0.3,0.2-0.4V12.8L15.5,12.8z"/>
</g>
</svg>
