<!-- Generator: Adobe Illustrator 22.1.0, SVG Export Plug-In  -->
<svg version="1.1"
	 xmlns="http://www.w3.org/2000/svg" xmlns:xlink="http://www.w3.org/1999/xlink" xmlns:a="http://ns.adobe.com/AdobeSVGViewerExtensions/3.0/"
	 x="0px" y="0px" width="19.4px" height="27.6px" viewBox="0 0 19.4 27.6" style="enable-background:new 0 0 19.4 27.6;"
	 xml:space="preserve">
<style type="text/css">
	.st0{fill-rule:evenodd;clip-rule:evenodd;}
</style>
<defs>
</defs>
<g>
	<path class="st0" d="M11.2,24c0.2,0,0.3,0.1,0.3,0.2c0,0,0,0.1,0,0.1c0,0.2-0.2,0.4-0.4,0.4H2.7c-0.2,0-0.4-0.2-0.4-0.4v0V12.8h-2
		c-0.2,0-0.4-0.2-0.4-0.4c0-0.1,0-0.2,0.1-0.2L9,0.1C9.1,0,9.4,0,9.5,0.1c0,0,0.1,0,0.1,0.1l8.9,12.1c0.1,0.2,0.1,0.4-0.1,0.5
		c-0.1,0-0.1,0.1-0.2,0.1v0h-2v3c0,0.2-0.2,0.4-0.4,0.4c-0.1,0-0.1,0-0.2,0c-0.1-0.1-0.2-0.2-0.2-0.3v-3H3.1V24H11.2L11.2,24z
		 M17.2,24.7v2.5c0,0.2-0.2,0.4-0.4,0.4c-0.1,0-0.1,0-0.2,0L15,26.8l-1.7,0.8c-0.2,0.1-0.4,0-0.5-0.2c0,0,0-0.1,0-0.1h0v-2.5l0,0
		c-0.2,0-0.4-0.1-0.4-0.3l-0.2-1.2L11,22.7c-0.2-0.1-0.2-0.3-0.2-0.5l0,0l0.5-1.1L10.9,20c-0.1-0.2,0-0.4,0.2-0.5l1.1-0.6l0.2-1.2
		c0-0.2,0.2-0.3,0.4-0.3l1.2,0.1l0.9-0.8c0.1-0.1,0.4-0.1,0.5,0l0.9,0.8l1.2-0.1c0.2,0,0.4,0.1,0.4,0.3l0.2,1.2l1.1,0.6
		c0.2,0.1,0.2,0.3,0.2,0.5l0,0l-0.5,1.1l0.5,1.1c0.1,0.2,0,0.4-0.2,0.5l-1.1,0.6l-0.2,1.2c0,0.2-0.2,0.3-0.4,0.3L17.2,24.7
		L17.2,24.7z M13.5,24.7v2l1.3-0.6c0.1,0,0.2,0,0.3,0l1.3,0.6v-2l-0.2,0l-0.9,0.8c-0.1,0.1-0.4,0.1-0.5,0L14,24.6L13.5,24.7
		L13.5,24.7z M13.5,20.6c0,0.2-0.2,0.3-0.4,0.3c-0.2,0-0.3-0.2-0.3-0.4c0-0.1,0.1-0.3,0.1-0.4c0.1-0.1,0.1-0.3,0.2-0.4
		c0.1-0.2,0.3-0.2,0.5-0.1c0.2,0.1,0.2,0.3,0.1,0.5c-0.1,0.1-0.1,0.2-0.1,0.3C13.6,20.4,13.6,20.5,13.5,20.6L13.5,20.6z M14.4,19.5
		c-0.2,0.1-0.4,0-0.5-0.2c-0.1-0.2,0-0.4,0.2-0.5l0,0l0,0l0,0c0.2-0.1,0.4,0,0.5,0.2C14.8,19.1,14.7,19.4,14.4,19.5L14.4,19.5
		L14.4,19.5L14.4,19.5z M15.4,19.3c-0.2,0-0.3-0.2-0.3-0.4c0-0.2,0.2-0.3,0.4-0.3c0.6,0.1,1.1,0.4,1.4,0.8c0.4,0.4,0.6,1,0.6,1.5
		c0,0.7-0.3,1.2-0.7,1.7l0,0l0,0c-0.4,0.4-1,0.7-1.7,0.7c-0.5,0-1-0.2-1.4-0.5c-0.4-0.3-0.7-0.7-0.9-1.2c-0.1-0.2,0.1-0.4,0.2-0.4
		s0.4,0.1,0.4,0.2c0.1,0.3,0.3,0.7,0.6,0.9c0.3,0.2,0.6,0.3,1,0.3c0.5,0,0.9-0.2,1.2-0.5l0,0c0.3-0.3,0.5-0.7,0.5-1.2
		c0-0.4-0.1-0.8-0.4-1.1C16.1,19.6,15.8,19.4,15.4,19.3L15.4,19.3z M15.9,18.2l-0.8-0.7l-0.8,0.7c-0.1,0.1-0.2,0.1-0.3,0.1L13,18.1
		l-0.2,1l0,0c0,0.1-0.1,0.2-0.2,0.2L11.7,20l0.4,1c0,0.1,0,0.2,0,0.3l-0.4,1l0.9,0.5c0.1,0,0.2,0.1,0.2,0.3l0.2,1l1.1-0.1l0,0
		c0.1,0,0.2,0,0.3,0.1l0.8,0.7l0.8-0.7c0.1-0.1,0.2-0.1,0.3-0.1l1.1,0.1l0.2-1l0,0c0-0.1,0.1-0.2,0.2-0.2l0.9-0.5l-0.4-1
		c0-0.1,0-0.2,0-0.3l0.4-1l-0.9-0.5c-0.1,0-0.2-0.1-0.2-0.3l-0.2-1l-1.1,0.1l0,0C16.1,18.3,16,18.3,15.9,18.2L15.9,18.2z M9.7,19.6
		v1.5H10c0.2,0,0.3,0.1,0.3,0.2c0,0,0,0.1,0,0.1c0,0.2-0.2,0.4-0.4,0.4H7.5c-0.5,0-1-0.2-1.3-0.5l0,0l0,0c-0.3-0.3-0.5-0.8-0.5-1.3
		v-0.7v0v0v-2.3c0-0.5,0.2-1,0.5-1.3C6.5,15.2,7,15,7.5,15h3.7c0.3,0,0.6,0.1,0.9,0.2c0.3,0.2,0.5,0.4,0.7,0.6
		c0.1,0.2,0.1,0.4-0.1,0.5c-0.1,0.1-0.2,0.1-0.3,0c-0.1,0-0.1-0.1-0.2-0.1c-0.1-0.2-0.2-0.3-0.4-0.4c-0.2-0.1-0.4-0.1-0.6-0.1H7.5
		c-0.3,0-0.6,0.1-0.8,0.3c-0.2,0.2-0.3,0.5-0.3,0.8v2h3.7c0.2,0,0.4,0.2,0.4,0.4s-0.2,0.4-0.4,0.4H9.7L9.7,19.6z M8.9,21.1v-1.5H6.3
		v0.4c0,0.3,0.1,0.6,0.3,0.8c0.2,0.2,0.5,0.3,0.8,0.3H8.9L8.9,21.1z M8.9,8.5c-0.2,0-0.4-0.2-0.4-0.4c0-0.2,0.2-0.4,0.4-0.4H9
		c0.2,0,0.4,0.2,0.4,0.4c0,0.2-0.2,0.4-0.4,0.4H8.9L8.9,8.5z M7.7,9.2c0,0.2-0.2,0.4-0.4,0.4C7.2,9.5,7,9.4,7,9.2V8.4
		C7,8.2,7.1,8.1,7.2,8c0.1-0.1,0.3-0.2,0.5-0.2H8c0.2,0,0.4,0.2,0.4,0.4c0,0.2-0.2,0.4-0.4,0.4H7.7V9.2L7.7,9.2z M7.2,6.5h4.3
		c0.4,0,0.7,0.2,1,0.4c0.3,0.2,0.4,0.6,0.4,1V10c0,0.4-0.2,0.7-0.4,1c-0.3,0.3-0.6,0.4-1,0.4H7.2c-0.4,0-0.7-0.2-1-0.4
		c-0.2-0.2-0.4-0.6-0.4-1V7.9c0-0.4,0.2-0.7,0.4-1C6.4,6.7,6.8,6.5,7.2,6.5L7.2,6.5z M11.4,7.3H7.2C7,7.3,6.8,7.3,6.7,7.4
		C6.6,7.6,6.5,7.7,6.5,7.9V10c0,0.2,0.1,0.3,0.2,0.5c0.1,0.1,0.3,0.2,0.5,0.2h4.3c0.2,0,0.3-0.1,0.5-0.2c0.1-0.1,0.2-0.3,0.2-0.5
		V7.9c0-0.2-0.1-0.3-0.2-0.5C11.8,7.3,11.6,7.3,11.4,7.3L11.4,7.3z M8.9,17c-0.2,0-0.4-0.2-0.4-0.4s0.2-0.4,0.4-0.4H9
		c0.2,0,0.4,0.2,0.4,0.4S9.2,17,9,17H8.9L8.9,17z M7.6,17.8c0,0.2-0.2,0.4-0.4,0.4c-0.2,0-0.4-0.2-0.4-0.4V17c0-0.2,0.1-0.3,0.2-0.5
		c0.1-0.1,0.3-0.2,0.5-0.2h0.4c0.2,0,0.4,0.2,0.4,0.4S8.1,17,7.9,17H7.6V17.8L7.6,17.8z M2.7,12.1L2.7,12.1L2.7,12.1h13.1h0h1.7
		L9.3,1L1.1,12.1H2.7L2.7,12.1z"/>
</g>
</svg>
