<!-- Generator: Adobe Illustrator 22.1.0, SVG Export Plug-In  -->
<svg version="1.1"
	 xmlns="http://www.w3.org/2000/svg" xmlns:xlink="http://www.w3.org/1999/xlink" xmlns:a="http://ns.adobe.com/AdobeSVGViewerExtensions/3.0/"
	 x="0px" y="0px" width="24.6px" height="24px" viewBox="0 0 24.6 24" style="enable-background:new 0 0 24.6 24;"
	 xml:space="preserve">
<defs>
</defs>
<g>
	<path d="M3.9,10.6c0,0.2-0.2,0.3-0.4,0.3c-0.2,0-0.3-0.2-0.3-0.4C3.3,9.2,3.7,8,4.4,6.9C5,5.8,5.9,4.8,6.9,4.1C7.1,4,7.3,4,7.4,4.2
		c0.1,0.2,0.1,0.4-0.1,0.5C6.4,5.3,5.6,6.2,5,7.3C4.4,8.3,4,9.4,3.9,10.6L3.9,10.6z M12,11.4l2.1,3.3c0.1,0.2,0.3,0.3,0.4,0.3
		c0.2,0,0.4-0.1,0.6-0.2c0.3-0.2,0.6-0.2,1-0.1l0,0v0c0.3,0.1,0.6,0.3,0.8,0.6l0.7,1.2l0,0c0.2,0.3,0.2,0.6,0.1,0.9
		c-0.1,0.3-0.3,0.6-0.5,0.8c0,0,0,0,0,0l-0.4,0.3l0,0l0,0l-1.4,0.8l0,0l0,0l0,0c0,0,0,0,0,0c-0.3,0.2-0.6,0.2-0.9,0.1
		c-0.3-0.1-0.6-0.3-0.8-0.5l0,0l0,0l0,0l0,0l-1.2-2l-3.1-5L8,9.9l0,0l0,0c0,0,0,0,0,0C7.8,9.6,7.8,9.3,7.8,9
		c0.1-0.3,0.3-0.6,0.5-0.7c0,0,0,0,0,0l0,0l0,0l1.4-0.8l0,0l0.4-0.3l0,0c0.3-0.2,0.6-0.2,0.9-0.1l0,0C11.6,7,11.8,7.2,12,7.5
		c0,0,0,0,0,0l0.7,1.2c0.2,0.3,0.2,0.6,0.1,1l0,0c-0.1,0.3-0.3,0.6-0.6,0.8c-0.2,0.1-0.4,0.3-0.5,0.4C11.8,11,11.8,11.2,12,11.4
		L12,11.4z M13.4,15.1l-2-3.3c-0.3-0.5-0.3-0.9-0.1-1.2c0.2-0.3,0.4-0.5,0.7-0.7c0.1-0.1,0.2-0.2,0.3-0.3l0,0c0-0.1,0-0.3-0.1-0.4
		l-0.7-1.2l0,0c-0.1-0.1-0.2-0.2-0.3-0.3l0,0c-0.1,0-0.3,0-0.4,0.1c0,0,0,0,0,0L10.2,8l0,0L8.8,8.8h0l0,0l0,0l0,0
		C8.6,8.9,8.5,9,8.5,9.1c0,0.1,0,0.3,0.1,0.4l0,0l0,0l0,0l0,0l1.2,2l3.1,5l1.2,2l0,0l0,0l0,0l0,0l0,0l0,0c0.1,0.1,0.2,0.2,0.3,0.2
		c0.1,0,0.3,0,0.4-0.1l0,0l0,0l0,0l0,0v0l0,0l0,0l0,0l1.4-0.8l0,0l0.4-0.3l0,0c0.1-0.1,0.2-0.2,0.3-0.3c0-0.1,0-0.3-0.1-0.4
		c0,0,0,0,0,0l-0.7-1.2c-0.1-0.1-0.2-0.2-0.4-0.3v0c-0.1,0-0.3,0-0.4,0.1c-0.3,0.2-0.6,0.3-1,0.3C14.1,15.8,13.7,15.6,13.4,15.1
		L13.4,15.1z M11.3,7c0.2,0.1,0.3,0.2,0.2,0.4L11.3,7L11.3,7z M12.9,9.7c-0.1,0.2-0.2,0.3-0.4,0.2L12.9,9.7L12.9,9.7z M12.6,0
		c3.3,0,6.3,1.3,8.5,3.5c2.2,2.2,3.5,5.2,3.5,8.5s-1.3,6.3-3.5,8.5c-2.2,2.2-5.2,3.5-8.5,3.5c-1.2,0-2.4-0.2-3.5-0.5
		C8,23.2,7,22.7,6,22.1l-5.6,1.7c-0.2,0.1-0.4-0.1-0.4-0.2c0-0.1,0-0.2,0-0.2l2-5.5C1.6,17,1.2,16,1,15.1c-0.3-1-0.4-2-0.4-3.1
		c0-3.3,1.3-6.3,3.5-8.5C6.2,1.3,9.2,0,12.6,0L12.6,0z M20.5,4c-2-2-4.9-3.3-8-3.3C9.4,0.7,6.6,2,4.6,4c-2,2-3.3,4.9-3.3,8
		c0,1,0.1,2,0.4,2.9c0.3,1,0.6,1.9,1.1,2.7l0,0c0,0.1,0.1,0.2,0,0.3l-1.8,5L6,21.4v0c0.1,0,0.2,0,0.3,0c0.9,0.6,1.9,1.1,3,1.4
		c1,0.3,2.1,0.5,3.3,0.5c3.1,0,5.9-1.3,8-3.3c2-2,3.3-4.9,3.3-8C23.9,8.9,22.6,6.1,20.5,4L20.5,4z M8.4,4C8.2,4.1,8,4,7.9,3.8
		c-0.1-0.2,0-0.4,0.1-0.5c0.1-0.1,0.2-0.1,0.4-0.2C8.6,3.1,8.7,3.1,8.8,3C9,2.9,9.2,3,9.3,3.2c0.1,0.2,0,0.4-0.2,0.5
		C9,3.7,8.8,3.8,8.7,3.8C8.6,3.9,8.5,3.9,8.4,4L8.4,4z"/>
</g>
</svg>
