<!-- Generator: Adobe Illustrator 22.1.0, SVG Export Plug-In  -->
<svg version="1.1"
	 xmlns="http://www.w3.org/2000/svg" xmlns:xlink="http://www.w3.org/1999/xlink" xmlns:a="http://ns.adobe.com/AdobeSVGViewerExtensions/3.0/"
	 x="0px" y="0px" width="24.6px" height="14.6px" viewBox="0 0 24.6 14.6" style="enable-background:new 0 0 24.6 14.6;"
	 xml:space="preserve">
<defs>
</defs>
<g>
	<path d="M11.5,12.6L11.5,12.6L11.5,12.6L11.5,12.6L11.5,12.6c-0.1,0.2-0.1,0.4-0.1,0.6h0c0,0.2,0,0.4,0.1,0.5
		c0.1,0.1,0.2,0.2,0.4,0.3l0,0c0.1,0,0.3,0.1,0.4,0.1c0.4,0,0.9-0.2,1.3-0.5c0.4-0.3,0.8-0.7,0.9-1.1l1-2.5
		c-0.5,0.3-1.1,0.5-1.6,0.5c-0.2,0-0.5,0-0.6-0.1c-0.3-0.1-0.5-0.3-0.6-0.5L11.5,12.6L11.5,12.6z M13.5,11.8
		c0.1-0.1,0.2-0.2,0.4-0.2c0.1,0,0.2,0.2,0.2,0.3c0,0,0,0.1,0,0.1c-0.1,0.4-0.4,0.7-0.8,1l0,0l0,0c-0.3,0.2-0.8,0.4-1.1,0.4h0
		c-0.2,0-0.3-0.1-0.3-0.3c0-0.2,0.1-0.3,0.3-0.3h0c0.3,0,0.6-0.1,0.8-0.3l0,0C13.2,12.3,13.4,12.1,13.5,11.8L13.5,11.8z M9.8,11.8
		c0.1-0.1,0.2-0.2,0.4-0.2c0.1,0,0.2,0.2,0.2,0.3c0,0,0,0.1,0,0.1c-0.1,0.4-0.4,0.7-0.8,1l0,0l0,0c-0.3,0.2-0.8,0.4-1.1,0.4h0
		c-0.2,0-0.3-0.1-0.3-0.3c0-0.2,0.1-0.3,0.3-0.3h0c0.3,0,0.6-0.1,0.8-0.3l0,0C9.5,12.3,9.7,12.1,9.8,11.8L9.8,11.8z M6.3,11.8
		c0.1-0.1,0.2-0.2,0.4-0.2c0.1,0,0.2,0.2,0.2,0.3c0,0,0,0.1,0,0.1c-0.1,0.4-0.4,0.7-0.8,1l0,0l0,0c-0.3,0.2-0.8,0.4-1.1,0.4h0
		c-0.2,0-0.3-0.1-0.3-0.3c0-0.2,0.1-0.3,0.3-0.3h0c0.3,0,0.6-0.1,0.8-0.3l0,0C5.9,12.3,6.2,12.1,6.3,11.8L6.3,11.8z M2.8,11.8
		c0.1-0.1,0.2-0.2,0.4-0.2c0.1,0,0.2,0.2,0.2,0.3c0,0,0,0.1,0,0.1c-0.1,0.4-0.4,0.7-0.8,1l0,0l0,0c-0.3,0.2-0.8,0.4-1.1,0.4h0
		c-0.2,0-0.3-0.1-0.3-0.3c0-0.2,0.1-0.3,0.3-0.3h0c0.3,0,0.6-0.1,0.8-0.3l0,0C2.5,12.3,2.7,12.1,2.8,11.8L2.8,11.8z M15.3,7.8
		c0.1-0.1,0.2-0.2,0.4-0.2c0.1,0,0.2,0.2,0.2,0.3c0,0,0,0.1,0,0.1c-0.1,0.4-0.4,0.7-0.8,1l0,0l0,0c-0.3,0.2-0.8,0.4-1.1,0.4h0
		c-0.2,0-0.3-0.1-0.3-0.3c0-0.2,0.1-0.3,0.3-0.3h0c0.3,0,0.6-0.1,0.8-0.3l0,0C14.9,8.3,15.2,8,15.3,7.8L15.3,7.8z M11.6,7.8
		c0.1-0.1,0.2-0.2,0.4-0.2c0.1,0,0.2,0.2,0.2,0.3c0,0,0,0.1,0,0.1c-0.1,0.4-0.4,0.7-0.8,1l0,0l0,0c-0.3,0.2-0.8,0.4-1.1,0.4h0
		C10,9.3,9.9,9.2,9.9,9c0-0.2,0.1-0.3,0.3-0.3h0c0.3,0,0.6-0.1,0.8-0.3l0,0C11.3,8.3,11.5,8,11.6,7.8L11.6,7.8z M8,7.8
		c0.1-0.1,0.2-0.2,0.4-0.2c0.1,0,0.2,0.2,0.2,0.3c0,0,0,0.1,0,0.1c-0.1,0.4-0.4,0.7-0.8,1l0,0l0,0C7.4,9.2,7,9.3,6.6,9.3h0
		C6.5,9.3,6.4,9.2,6.4,9c0-0.2,0.1-0.3,0.3-0.3h0c0.3,0,0.6-0.1,0.8-0.3l0,0C7.7,8.3,7.9,8,8,7.8L8,7.8z M4.5,7.8
		c0.1-0.1,0.2-0.2,0.4-0.2c0.1,0,0.2,0.2,0.2,0.3c0,0,0,0.1,0,0.1c-0.1,0.4-0.4,0.7-0.8,1l0,0l0,0C4,9.2,3.5,9.3,3.2,9.3h0
		C3,9.3,2.9,9.2,2.9,9c0-0.2,0.1-0.3,0.3-0.3h0c0.3,0,0.6-0.1,0.8-0.3l0,0C4.2,8.3,4.4,8,4.5,7.8L4.5,7.8z M16.9,3.5
		c0.1-0.1,0.2-0.2,0.4-0.2c0.1,0,0.2,0.2,0.2,0.3c0,0,0,0.1,0,0.1c-0.1,0.4-0.4,0.7-0.8,1l0,0l0,0c-0.3,0.2-0.8,0.4-1.1,0.4h0
		c-0.2,0-0.3-0.1-0.3-0.3s0.1-0.3,0.3-0.3h0c0.3,0,0.6-0.1,0.8-0.3l0,0C16.6,4,16.8,3.8,16.9,3.5L16.9,3.5z M13.2,3.5
		c0.1-0.1,0.2-0.2,0.4-0.2c0.1,0,0.2,0.2,0.2,0.3c0,0,0,0.1,0,0.1c-0.1,0.4-0.4,0.7-0.8,1l0,0l0,0c-0.3,0.2-0.8,0.4-1.1,0.4h0
		c-0.2,0-0.3-0.1-0.3-0.3s0.1-0.3,0.3-0.3h0c0.3,0,0.6-0.1,0.8-0.3l0,0C12.9,4,13.1,3.8,13.2,3.5L13.2,3.5z M9.7,3.5
		c0.1-0.1,0.2-0.2,0.4-0.2c0.1,0,0.2,0.2,0.2,0.3c0,0,0,0.1,0,0.1c-0.1,0.4-0.4,0.7-0.8,1l0,0l0,0C9.1,4.9,8.7,5.1,8.3,5.1h0
		C8.2,5.1,8,5,8,4.8s0.1-0.3,0.3-0.3h0c0.3,0,0.6-0.1,0.8-0.3l0,0C9.4,4,9.6,3.8,9.7,3.5L9.7,3.5z M6.2,3.5c0.1-0.1,0.2-0.2,0.4-0.2
		c0.1,0,0.2,0.2,0.2,0.3c0,0,0,0.1,0,0.1C6.6,4.1,6.3,4.4,6,4.7l0,0l0,0C5.6,4.9,5.2,5.1,4.8,5.1h0C4.7,5.1,4.5,5,4.5,4.8
		s0.1-0.3,0.3-0.3h0c0.3,0,0.6-0.1,0.8-0.3l0,0C5.9,4,6.1,3.8,6.2,3.5L6.2,3.5z M19.9,0.2L19.9,0.2c1.5,4.1,3,8.2,4.5,12.2
		c0.1,0.3,0.1,0.5,0.1,0.7c0,0.3-0.1,0.6-0.2,0.8c-0.2,0.2-0.4,0.4-0.7,0.5l0,0c-0.2,0.1-0.4,0.1-0.6,0.1c-0.6,0-1.1-0.2-1.6-0.6
		c-0.2-0.1-0.3-0.3-0.5-0.4c0,0.1-0.1,0.3-0.2,0.4c-0.2,0.2-0.4,0.4-0.7,0.5l0,0c-0.2,0.1-0.4,0.1-0.6,0.1c-0.6,0-1.1-0.2-1.6-0.6
		c-0.2-0.1-0.3-0.3-0.5-0.4c0,0.1-0.1,0.3-0.2,0.4c-0.2,0.2-0.4,0.4-0.7,0.5l0,0c-0.2,0.1-0.4,0.1-0.6,0.1c-0.6,0-1.1-0.2-1.6-0.6
		c-0.1,0-0.1-0.1-0.1-0.1C14,13.9,14,14,13.9,14c-0.5,0.4-1.1,0.6-1.6,0.6c-0.2,0-0.5,0-0.6-0.1l0,0l0,0c-0.3-0.1-0.5-0.3-0.6-0.5
		c-0.1-0.1-0.1-0.2-0.2-0.4c-0.2,0.2-0.3,0.3-0.5,0.4c-0.5,0.4-1.1,0.6-1.6,0.6c-0.2,0-0.5,0-0.6-0.1c-0.3-0.1-0.5-0.3-0.6-0.5
		c-0.1-0.1-0.1-0.2-0.2-0.4c-0.2,0.2-0.3,0.3-0.5,0.4c-0.5,0.4-1.1,0.6-1.6,0.6c-0.2,0-0.5,0-0.6-0.1l0,0l0,0
		C4.2,14.4,4,14.2,3.8,14c-0.1-0.1-0.1-0.2-0.2-0.4c-0.2,0.2-0.3,0.3-0.5,0.4c-0.5,0.4-1.1,0.6-1.6,0.6c-0.2,0-0.5,0-0.6-0.1
		c-0.3-0.1-0.5-0.3-0.6-0.5C0.1,13.7,0,13.5,0,13.2c0-0.2,0-0.5,0.2-0.8l0,0l1.5-3.8c0,0,0-0.1,0-0.1c0-0.1,0-0.2,0.1-0.2l1.5-3.8
		c0,0,0-0.1,0.1-0.1c0-0.1,0.1-0.2,0.1-0.3l0,0l0.7-1.7c0-0.1,0-0.1,0-0.2c0-0.1,0-0.2,0-0.2l0,0l0,0l0.6-1.5c0-0.1,0.2-0.2,0.3-0.2
		h0h0C5.1,0,5.2,0,5.3,0h0h3.6h0h0h0h0h3.6h0h0h0h0H16h0h0h0h3.6h0h0h0l0,0h0l0,0l0,0l0,0l0,0l0,0l0,0h0l0,0l0,0l0,0l0,0l0,0l0,0
		l0,0l0,0h0l0,0l0,0l0,0l0,0l0,0l0,0l0,0l0,0l0,0l0,0l0,0l0,0h0l0,0l0,0l0,0l0,0l0,0l0,0l0,0l0,0l0,0l0,0l0,0l0,0l0,0l0,0l0,0l0,0
		l0,0l0,0l0,0l0,0l0,0l0,0l0,0l0,0l0,0l0,0l0,0l0,0l0,0l0,0l0,0l0,0l0,0l0,0l0,0l0,0l0,0l0,0l0,0l0,0l0,0L19.9,0.2L19.9,0.2
		L19.9,0.2L19.9,0.2L19.9,0.2L19.9,0.2L19.9,0.2L19.9,0.2L19.9,0.2L19.9,0.2L19.9,0.2L19.9,0.2L19.9,0.2L19.9,0.2L19.9,0.2L19.9,0.2
		L19.9,0.2L19.9,0.2L19.9,0.2L19.9,0.2L19.9,0.2L19.9,0.2L19.9,0.2L19.9,0.2L19.9,0.2L19.9,0.2L19.9,0.2L19.9,0.2L19.9,0.2L19.9,0.2
		L19.9,0.2L19.9,0.2L19.9,0.2L19.9,0.2L19.9,0.2L19.9,0.2L19.9,0.2z M19.2,2.2l-0.8,2.1c0,0.1-0.1,0.2-0.1,0.3l0,0c0,0,0,0.1,0,0.1
		L18.1,5l1.2,3.3l0,0l0,0l0,0l0,0l0,0v0l0,0l0,0l0,0v0l0,0l0,0c0,0,0,0.1,0,0.1l0,0l0,0c0,0,0,0.1,0.1,0.1c0,0,0,0.1,0,0.2l0,0
		l1.4,3.7l0,0l0,0l0,0c0.2,0.4,0.5,0.8,0.9,1.1c0.4,0.3,0.9,0.5,1.3,0.5c0.2,0,0.3,0,0.4-0.1l0,0c0.2-0.1,0.3-0.2,0.4-0.3
		c0.1-0.1,0.1-0.3,0.1-0.5c0-0.2,0-0.3-0.1-0.5C22.5,8.8,21,4.9,19.6,1.1L19.3,2C19.2,2.1,19.2,2.1,19.2,2.2L19.2,2.2z M17.2,5.6
		c-0.5,0.3-1.1,0.5-1.6,0.5c-0.2,0-0.5,0-0.6-0.1l0,0l0,0c-0.3-0.1-0.5-0.3-0.6-0.5c0,0,0-0.1,0-0.1l-1.2,3l0,0h0l0,0l0,0l0,0l0,0
		l0,0C13,8.7,13,8.9,13,9c0,0.2,0,0.4,0.1,0.5c0.1,0.1,0.2,0.2,0.4,0.3c0.1,0,0.3,0.1,0.4,0.1c0.4,0,0.9-0.2,1.3-0.5
		c0.4-0.3,0.8-0.7,0.9-1.1L17.2,5.6L17.2,5.6z M14.8,4.2c-0.1,0.2-0.1,0.4-0.1,0.5h0c0,0.2,0,0.4,0.1,0.5c0.1,0.1,0.2,0.2,0.4,0.3
		l0,0c0.1,0,0.3,0.1,0.4,0.1c0.4,0,0.9-0.2,1.3-0.5c0.4-0.3,0.8-0.7,0.9-1.1l0.6-1.4h-3L14.8,4.2L14.8,4.2L14.8,4.2L14.8,4.2
		L14.8,4.2L14.8,4.2L14.8,4.2L14.8,4.2z M13.6,5.6C13.1,6,12.5,6.2,12,6.2c-0.2,0-0.5,0-0.6-0.1l0,0l0,0c-0.3-0.1-0.5-0.3-0.6-0.5
		c0,0,0-0.1,0-0.1l-1.2,3l0,0l0,0l0,0l0,0l0,0C9.4,8.7,9.4,8.9,9.4,9h0c0,0.2,0,0.4,0.1,0.5c0.1,0.1,0.2,0.2,0.4,0.3l0,0
		c0.1,0,0.3,0.1,0.4,0.1c0.4,0,0.9-0.2,1.3-0.5c0.4-0.3,0.8-0.7,0.9-1.1L13.6,5.6L13.6,5.6z M11.2,4.2c-0.1,0.2-0.1,0.4-0.1,0.5
		c0,0.2,0,0.4,0.1,0.5c0.1,0.1,0.2,0.2,0.4,0.3l0,0c0.1,0,0.3,0.1,0.4,0.1c0.4,0,0.9-0.2,1.3-0.5c0.4-0.3,0.7-0.7,0.9-1.1l0,0l0,0
		l0,0l0.6-1.4h-3L11.2,4.2L11.2,4.2L11.2,4.2L11.2,4.2L11.2,4.2L11.2,4.2L11.2,4.2L11.2,4.2z M10,5.6C9.5,6,9,6.2,8.4,6.2
		c-0.2,0-0.5,0-0.6-0.1l0,0l0,0C7.5,6,7.3,5.8,7.1,5.6c0,0,0,0,0-0.1l-1.2,3l0,0h0l0,0l0,0l0,0l0,0l0,0C5.8,8.7,5.8,8.9,5.8,9
		c0,0.2,0,0.4,0.1,0.5C6,9.6,6.1,9.8,6.3,9.8c0.1,0,0.3,0.1,0.4,0.1c0.4,0,0.9-0.2,1.3-0.5C8.4,9.1,8.8,8.7,9,8.3l0,0l0,0l0,0
		L10,5.6L10,5.6z M7.6,4.2C7.5,4.4,7.5,4.6,7.5,4.8h0c0,0.2,0,0.4,0.1,0.5C7.7,5.4,7.8,5.5,8,5.6l0,0c0.1,0,0.3,0.1,0.4,0.1
		c0.4,0,0.9-0.2,1.3-0.5c0.4-0.3,0.7-0.7,0.9-1.1l0,0l0,0l0,0l0.6-1.4h-3L7.6,4.2L7.6,4.2L7.6,4.2L7.6,4.2L7.6,4.2L7.6,4.2L7.6,4.2
		L7.6,4.2z M4.7,2.6L4,4.2l0,0l0,0C3.9,4.4,3.9,4.6,3.9,4.8c0,0.2,0,0.4,0.1,0.5c0.1,0.1,0.2,0.2,0.4,0.3c0.1,0,0.3,0.1,0.4,0.1
		c0.4,0,0.9-0.2,1.3-0.5C6.5,4.9,6.9,4.5,7.1,4l0,0l0,0l0,0l0.6-1.4L4.7,2.6L4.7,2.6L4.7,2.6z M6.4,5.6C5.9,6,5.4,6.2,4.8,6.2
		c-0.2,0-0.5,0-0.6-0.1C3.9,6,3.7,5.8,3.5,5.6c0,0,0,0,0-0.1l-1.2,3C2.2,8.7,2.2,8.9,2.2,9h0c0,0.2,0,0.4,0.1,0.5
		c0.1,0.1,0.2,0.2,0.4,0.3l0,0c0.1,0,0.3,0.1,0.4,0.1c0.4,0,0.9-0.2,1.3-0.5c0.4-0.3,0.8-0.7,0.9-1.1L6.4,5.6L6.4,5.6z M16.6,8.7
		C16.6,8.7,16.6,8.8,16.6,8.7l-0.4,0.9l1,2.8v0l0,0l0,0l0,0c0.2,0.4,0.5,0.8,0.9,1.1c0.4,0.3,0.9,0.5,1.3,0.5c0.2,0,0.3,0,0.4-0.1
		l0,0c0.2-0.1,0.3-0.2,0.4-0.3c0.1-0.1,0.1-0.3,0.1-0.5c0-0.2,0-0.3-0.1-0.5l0,0l0,0l-1.4-3.7c0,0-0.1-0.1-0.1-0.1c0,0,0-0.1,0-0.1
		l0,0c0,0,0-0.1,0-0.1l0,0l0,0l0,0h0l0,0l0,0l0,0l0,0l0,0l0,0l0,0l0,0l-1-2.7l-1.1,2.7C16.7,8.6,16.6,8.6,16.6,8.7L16.6,8.7z M9,9.8
		l-1.1,2.9l0,0l0,0c-0.1,0.2-0.1,0.3-0.1,0.5c0,0.2,0,0.4,0.1,0.5C8,13.8,8.1,13.9,8.3,14C8.4,14,8.5,14,8.7,14
		c0.4,0,0.9-0.2,1.3-0.5c0.4-0.3,0.7-0.7,0.9-1.1l0,0l0,0l0,0l1-2.5c-0.5,0.3-1.1,0.5-1.6,0.5c-0.2,0-0.5,0-0.6-0.1l0,0l0,0
		C9.4,10.2,9.2,10.1,9,9.8C9,9.8,9,9.8,9,9.8L9,9.8z M5.4,9.8l-1.1,2.9l0,0l0,0l0,0l0,0c-0.1,0.2-0.1,0.4-0.1,0.5h0
		c0,0.2,0,0.4,0.1,0.5c0.1,0.1,0.2,0.2,0.4,0.3l0,0C4.8,14,4.9,14,5.1,14c0.4,0,0.9-0.2,1.3-0.5c0.4-0.3,0.8-0.7,0.9-1.1l1-2.5
		c-0.5,0.3-1.1,0.5-1.6,0.5c-0.2,0-0.5,0-0.6-0.1C5.8,10.2,5.6,10.1,5.4,9.8L5.4,9.8L5.4,9.8z M1.8,9.8l-1.1,2.9l0,0l0,0
		c-0.1,0.2-0.1,0.4-0.1,0.6c0,0.2,0,0.4,0.1,0.5c0.1,0.1,0.2,0.2,0.4,0.3C1.2,14,1.3,14,1.5,14c0.4,0,0.9-0.2,1.3-0.5
		c0.4-0.3,0.7-0.7,0.9-1.1l0,0l0,0l0,0l1-2.5c-0.5,0.3-1.1,0.5-1.6,0.5c-0.2,0-0.5,0-0.6-0.1l0,0l0,0C2.2,10.2,2,10.1,1.8,9.8
		C1.8,9.8,1.8,9.8,1.8,9.8L1.8,9.8z M15.9,10.4L15,12.6c-0.1,0.3-0.3,0.6-0.6,0.9l0.1,0.1c0.4,0.3,0.9,0.5,1.3,0.5
		c0.2,0,0.3,0,0.4-0.1l0,0c0.2-0.1,0.3-0.2,0.4-0.3c0.1-0.1,0.1-0.3,0.1-0.5c0-0.2,0-0.3-0.1-0.5h0l0,0l0,0l0,0v0L15.9,10.4
		L15.9,10.4z M15.9,0.6L15.9,0.6L15.9,0.6H5.2L4.7,2l0,0l0,0h13.8c0,0,0.1,0,0.2-0.1c0.1,0,0.1-0.1,0.1-0.2l0.5-1.2H15.9L15.9,0.6z
		 M4.7,2L4.7,2L4.7,2L4.7,2L4.7,2L4.7,2z"/>
</g>
</svg>
