<!-- Generator: Adobe Illustrator 22.1.0, SVG Export Plug-In  -->
<svg version="1.1"
	 xmlns="http://www.w3.org/2000/svg" xmlns:xlink="http://www.w3.org/1999/xlink" xmlns:a="http://ns.adobe.com/AdobeSVGViewerExtensions/3.0/"
	 x="0px" y="0px" width="24.7px" height="14.7px" viewBox="0 0 24.7 14.7" style="enable-background:new 0 0 24.7 14.7;"
	 xml:space="preserve">
<defs>
</defs>
<g>
	<path d="M11.5,0.8c-0.2,0-0.4-0.1-0.4-0.3c0-0.2,0.1-0.4,0.3-0.4c0.1,0,0.3,0,0.4,0c0.2,0,0.3,0,0.4,0c2,0,3.9,0.8,5.2,2.1
		s2.1,3.2,2.1,5.2c0,2-0.8,3.9-2.1,5.2l0,0l0,0l0,0c-1.3,1.3-3.2,2.1-5.2,2.1c-2,0-3.9-0.8-5.2-2.1S5,9.4,5,7.3
		c0-0.6,0.1-1.1,0.2-1.6c0.1-0.5,0.3-1,0.5-1.5C5.8,4,6,3.9,6.2,4c0.2,0.1,0.3,0.3,0.2,0.5C6.2,4.9,6,5.4,5.9,5.9
		c-0.1,0.5-0.2,1-0.2,1.5c0,1.8,0.7,3.5,1.9,4.7s2.9,1.9,4.7,1.9c1.8,0,3.5-0.7,4.7-1.9l0,0c1.2-1.2,1.9-2.8,1.9-4.7
		c0-1.8-0.7-3.5-1.9-4.7s-2.9-1.9-4.7-1.9c-0.1,0-0.3,0-0.4,0C11.8,0.7,11.7,0.8,11.5,0.8L11.5,0.8z M4.2,4c0.1,0.1,0.1,0.4,0,0.5
		c-0.1,0.1-0.4,0.1-0.5,0L2,2.8C1.9,2.7,1.9,2.4,2,2.3c0.1-0.1,0.4-0.1,0.5,0L4.2,4L4.2,4z M3.8,10.2c0.1-0.1,0.4-0.1,0.5,0
		c0.1,0.1,0.1,0.4,0,0.5l-1.7,1.7c-0.1,0.1-0.4,0.1-0.5,0C2,12.2,2,12,2.2,11.9L3.8,10.2L3.8,10.2z M2.7,7c0.2,0,0.4,0.2,0.4,0.4
		c0,0.2-0.2,0.4-0.4,0.4H0.4C0.2,7.7,0,7.6,0,7.4C0,7.2,0.2,7,0.4,7H2.7L2.7,7z M21,4.5c-0.1,0.1-0.4,0.1-0.5,0
		c-0.1-0.1-0.1-0.4,0-0.5l1.7-1.7c0.1-0.1,0.4-0.1,0.5,0c0.1,0.1,0.1,0.4,0,0.5L21,4.5L21,4.5z M20.4,10.7c-0.1-0.1-0.1-0.4,0-0.5
		c0.1-0.1,0.4-0.1,0.5,0l1.7,1.7c0.1,0.1,0.1,0.4,0,0.5s-0.4,0.1-0.5,0L20.4,10.7L20.4,10.7z M22,7.7c-0.2,0-0.4-0.2-0.4-0.4
		C21.6,7.2,21.8,7,22,7h2.4c0.2,0,0.4,0.2,0.4,0.4c0,0.2-0.2,0.4-0.4,0.4H22L22,7.7z M7.8,5.6c0,0.2-0.2,0.3-0.4,0.3
		c-0.2,0-0.3-0.2-0.3-0.4C7.2,5.2,7.3,5,7.4,4.7l0,0c0.1-0.2,0.2-0.4,0.3-0.6C7.9,4,8.1,3.9,8.2,4s0.2,0.3,0.1,0.5
		C8.2,4.7,8.1,4.9,8,5l0,0C8,5.2,7.9,5.4,7.8,5.6L7.8,5.6z M9.6,3.5c-0.2,0.1-0.4,0-0.5-0.2C9,3.1,9.1,2.9,9.3,2.8l0.1,0l0,0l0.1,0
		c0.2-0.1,0.4,0,0.5,0.2c0.1,0.2,0,0.4-0.2,0.5L9.6,3.5L9.6,3.5L9.6,3.5z M10.6,7.6c-0.3,0-0.5-0.2-0.5-0.5s0.2-0.5,0.5-0.5h0.3V4.5
		c0-0.3,0.1-0.5,0.2-0.6c0.1-0.1,0.3-0.2,0.6-0.2h1.7c0.5,0,0.9,0,1.1,0.1c0.3,0.1,0.5,0.2,0.7,0.4c0.2,0.2,0.3,0.4,0.4,0.6
		c0.1,0.2,0.1,0.5,0.1,0.8c0,0.6-0.2,1.1-0.6,1.5c-0.4,0.3-1,0.5-1.8,0.5h-1.2v0.6h1.7c0.3,0,0.5,0.2,0.5,0.5s-0.2,0.5-0.5,0.5h-1.7
		v1c0,0.3-0.1,0.5-0.2,0.6c-0.1,0.1-0.3,0.2-0.5,0.2c-0.2,0-0.4-0.1-0.5-0.2c-0.1-0.1-0.2-0.3-0.2-0.6v-1h-0.3
		c-0.3,0-0.5-0.2-0.5-0.5s0.2-0.5,0.5-0.5h0.3V7.6H10.6L10.6,7.6z M12.2,6.6h1.2l0,0c0.2,0,0.3,0,0.4-0.1c0.2-0.1,0.4-0.2,0.5-0.3
		c0.1-0.1,0.2-0.3,0.2-0.6c0-0.3-0.1-0.5-0.2-0.7C14,4.8,13.6,4.7,13,4.7h-0.9V6.6L12.2,6.6z M7,3.4C6.9,3.6,6.7,3.6,6.5,3.5
		C6.3,3.4,6.3,3.2,6.4,3C6.7,2.7,7,2.3,7.3,2c0.3-0.3,0.6-0.6,1-0.8c0.2-0.1,0.4-0.1,0.5,0.1c0.1,0.2,0.1,0.4-0.1,0.5
		C8.4,2.1,8.1,2.3,7.8,2.6C7.5,2.8,7.2,3.1,7,3.4L7,3.4z M9.8,1.2c-0.2,0.1-0.4,0-0.5-0.2s0-0.4,0.2-0.5c0.1,0,0.2-0.1,0.3-0.1
		c0.1,0,0.2-0.1,0.3-0.1c0.2-0.1,0.4,0,0.5,0.2c0.1,0.2,0,0.4-0.2,0.5c-0.1,0-0.1,0.1-0.2,0.1C9.9,1.2,9.8,1.2,9.8,1.2L9.8,1.2z"/>
</g>
</svg>
