<svg 
 xmlns="http://www.w3.org/2000/svg"
 xmlns:xlink="http://www.w3.org/1999/xlink"
 width="59px" height="61px">
<path fill-rule="evenodd"  fill="rgb(250, 172, 61)"
 d="M58.619,21.993 C57.628,18.568 54.863,16.144 51.618,15.437 C52.170,12.150 50.956,8.672 48.157,6.474 C45.149,4.114 41.155,3.896 37.991,5.591 C36.538,2.299 33.258,0.001 29.440,0.001 C25.886,0.001 22.796,1.991 21.214,4.921 C18.224,3.473 14.558,3.671 11.675,5.757 C8.792,7.843 7.443,11.270 7.867,14.576 C4.597,15.156 1.739,17.468 0.614,20.852 C-0.510,24.237 0.392,27.809 2.660,30.243 C0.345,32.631 -0.627,36.186 0.431,39.591 C1.489,42.997 4.302,45.365 7.560,46.008 C7.073,49.305 8.354,52.759 11.196,54.901 C14.038,57.043 17.698,57.314 20.716,55.924 C22.241,58.885 25.291,60.935 28.845,61.005 C32.397,61.074 35.526,59.146 37.165,56.247 C40.126,57.755 43.795,57.628 46.718,55.600 C49.641,53.571 51.056,50.170 50.698,46.857 C53.978,46.342 56.881,44.086 58.071,40.725 C59.262,37.363 58.429,33.774 56.209,31.296 C58.570,28.953 59.612,25.419 58.619,21.993 "/>
</svg>