<!-- Generator: Adobe Illustrator 22.1.0, SVG Export Plug-In  -->
<svg version="1.1"
	 xmlns="http://www.w3.org/2000/svg" xmlns:xlink="http://www.w3.org/1999/xlink" xmlns:a="http://ns.adobe.com/AdobeSVGViewerExtensions/3.0/"
	 x="0px" y="0px" width="23.5px" height="23.5px" viewBox="0 0 23.5 23.5" style="enable-background:new 0 0 23.5 23.5;"
	 xml:space="preserve">
<defs>
</defs>
<path d="M3.5,6.8c0,0.2-0.2,0.4-0.4,0.4S2.7,7,2.7,6.8V6c0-0.2,0.2-0.4,0.4-0.4S3.5,5.8,3.5,6V6.8L3.5,6.8z M4.3,0h14.9
	c1.2,0,2.3,0.5,3.1,1.3l0,0c0.8,0.8,1.3,1.9,1.3,3v14.9c0,1.2-0.5,2.3-1.3,3.1c-0.8,0.8-1.9,1.3-3.1,1.3H4.3c-1.2,0-2.3-0.5-3.1-1.3
	l0,0C0.5,21.5,0,20.4,0,19.2V4.3c0-1.2,0.5-2.3,1.3-3.1l0,0l0,0l0,0C2.1,0.5,3.1,0,4.3,0L4.3,0z M19.2,0.7H4.3c-1,0-1.9,0.4-2.6,1.1
	l0,0C1.1,2.4,0.7,3.3,0.7,4.3v14.9c0,1,0.4,1.9,1.1,2.6l0,0l0,0c0.7,0.7,1.6,1.1,2.6,1.1h14.9c1,0,1.9-0.4,2.6-1.1s1.1-1.6,1.1-2.6
	V4.3c0-1-0.4-1.9-1-2.5l0,0C21.1,1.1,20.2,0.7,19.2,0.7L19.2,0.7z M18.2,14.9c0,0.7-0.1,1.3-0.4,1.8l0,0c-0.3,0.5-0.6,1-1.1,1.3l0,0
	l0,0c-0.3,0.2-0.5,0.4-0.8,0.5c-0.3,0.1-0.6,0.3-0.9,0.3l0,0c-0.3,0.1-0.6,0.1-1,0.2c-0.4,0-0.8,0.1-1.3,0.1H7.5
	c-0.2,0-0.4-0.2-0.4-0.4v0V6c0-0.2,0.2-0.4,0.4-0.4h0h4.5c0.5,0,0.9,0,1.3,0c0.4,0,0.7,0,0.9,0.1l0,0c0.3,0,0.5,0.1,0.8,0.2l0,0
	c0.2,0.1,0.5,0.2,0.7,0.3c0.3,0.1,0.5,0.3,0.7,0.5c0.2,0.2,0.4,0.4,0.5,0.6l0,0c0.1,0.2,0.2,0.5,0.3,0.7l0,0
	c0.1,0.3,0.1,0.5,0.1,0.8c0,0.3,0,0.7-0.1,1c-0.1,0.3-0.2,0.6-0.4,0.9l0,0c-0.2,0.3-0.4,0.5-0.6,0.7l0,0c0,0-0.1,0.1-0.1,0.1
	c0.1,0.1,0.3,0.1,0.4,0.2c0.4,0.2,0.7,0.4,0.9,0.7c0.3,0.3,0.5,0.6,0.6,1C18.1,14,18.2,14.5,18.2,14.9L18.2,14.9z M17.1,16.5
	c0.2-0.4,0.3-0.9,0.3-1.5c0-0.4-0.1-0.8-0.2-1.1c-0.1-0.3-0.3-0.6-0.5-0.8c-0.2-0.2-0.5-0.4-0.7-0.6c-0.3-0.2-0.6-0.3-1-0.3
	c-0.2,0-0.3-0.2-0.3-0.4v-0.1h0c0-0.1,0.1-0.3,0.2-0.3c0.2-0.1,0.4-0.2,0.6-0.4l0,0c0.2-0.2,0.3-0.3,0.5-0.5l0,0
	c0.1-0.2,0.2-0.4,0.3-0.7c0.1-0.2,0.1-0.5,0.1-0.8c0-0.2,0-0.5-0.1-0.7l0,0c0-0.2-0.1-0.4-0.2-0.6l0,0c-0.1-0.2-0.2-0.3-0.4-0.5
	c-0.1-0.1-0.3-0.3-0.5-0.4c-0.2-0.1-0.4-0.2-0.6-0.3l0,0c-0.2-0.1-0.4-0.1-0.6-0.1l0,0c-0.2,0-0.5-0.1-0.9-0.1c-0.3,0-0.7,0-1.2,0
	H7.9v12.1h4.8c0.4,0,0.8,0,1.2-0.1c0.3,0,0.6-0.1,0.9-0.2l0,0c0.3-0.1,0.5-0.2,0.8-0.3c0.2-0.1,0.5-0.3,0.7-0.4l0,0
	C16.6,17.3,16.9,16.9,17.1,16.5L17.1,16.5L17.1,16.5z M13.3,9.6c0-0.1,0-0.2,0-0.2h0c0-0.1-0.1-0.2-0.1-0.3l0,0
	C13.1,9,13,8.9,12.9,8.9l0,0c-0.1,0-0.2-0.1-0.3-0.1c-0.1,0-0.2,0-0.3,0c-0.1,0-0.3,0-0.5,0l-0.6,0v2h0c0.6,0,0.9,0,1.1,0
	c0.1,0,0.2,0,0.3,0c0.1,0,0.2-0.1,0.3-0.1l0,0c0.1,0,0.2-0.1,0.2-0.2c0.1,0,0.1-0.1,0.1-0.2l0,0c0-0.1,0.1-0.2,0.1-0.2
	C13.3,9.9,13.3,9.8,13.3,9.6L13.3,9.6z M14,9.2C14,9.4,14,9.5,14,9.6c0,0.2,0,0.3,0,0.5c0,0.1-0.1,0.3-0.1,0.4l0,0
	c-0.1,0.2-0.2,0.3-0.3,0.4c-0.1,0.1-0.3,0.2-0.4,0.3l0,0l0,0c-0.1,0.1-0.3,0.1-0.4,0.2c-0.1,0-0.3,0.1-0.4,0.1c-0.2,0-0.6,0-1.2,0
	h-0.4h0c-0.2,0-0.4-0.2-0.4-0.4V8.4v0c0-0.2,0.2-0.4,0.4-0.4H11c0.2,0,0.4,0,0.8,0c0.2,0,0.4,0,0.6,0c0.2,0,0.3,0,0.5,0.1
	c0.1,0,0.3,0.1,0.4,0.1l0,0c0.3,0.1,0.5,0.3,0.7,0.6l0,0C13.9,9,14,9.1,14,9.2L14,9.2L14,9.2L14,9.2z M14.1,14.9c0-0.2,0-0.3,0-0.4
	h0c0-0.1-0.1-0.2-0.1-0.3l0,0c-0.1-0.1-0.1-0.1-0.2-0.2l0,0l0,0c-0.1-0.1-0.2-0.1-0.3-0.2l0,0c-0.1,0-0.2,0-0.3-0.1
	c-0.1,0-0.3,0-0.4,0c-0.2,0-0.4,0-0.6,0h0l-0.8,0h-0.2v2.5c0.8,0,1.3,0,1.5,0c0.1,0,0.3,0,0.4-0.1c0.1,0,0.3-0.1,0.4-0.1l0,0
	c0.1,0,0.2-0.1,0.3-0.2c0.1-0.1,0.1-0.1,0.2-0.2c0.1-0.1,0.1-0.2,0.1-0.3l0,0C14.1,15.1,14.1,15,14.1,14.9L14.1,14.9z M14.8,14.3
	c0,0.2,0.1,0.4,0.1,0.6c0,0.2,0,0.3-0.1,0.5l0,0l0,0c0,0.2-0.1,0.3-0.2,0.5c-0.1,0.2-0.2,0.3-0.3,0.4c-0.1,0.1-0.3,0.2-0.4,0.3l0,0
	c-0.2,0.1-0.4,0.1-0.6,0.2c-0.2,0-0.4,0.1-0.6,0.1c-0.3,0-0.9,0-1.8,0h-0.2h0c-0.2,0-0.4-0.2-0.4-0.4v-3.2v0c0-0.2,0.2-0.4,0.4-0.4
	h0.6l0.8,0h0c0.2,0,0.4,0,0.6,0c0.2,0,0.4,0,0.5,0c0.1,0,0.3,0.1,0.4,0.1l0,0c0.2,0.1,0.4,0.2,0.5,0.3l0,0c0.1,0.1,0.3,0.2,0.4,0.4
	l0,0C14.7,13.9,14.7,14.1,14.8,14.3L14.8,14.3L14.8,14.3L14.8,14.3z M3.5,4.3c0,0.2-0.2,0.4-0.4,0.4S2.7,4.5,2.7,4.3
	c0-0.5,0.2-1.1,0.5-1.5C3.5,2.4,4,2.1,4.5,2.1h4.4c0.2,0,0.4,0.2,0.4,0.4c0,0.2-0.2,0.4-0.4,0.4H4.5C4.2,2.9,4,3,3.8,3.2
	C3.6,3.5,3.5,3.9,3.5,4.3L3.5,4.3z"/>
</svg>
