<!-- Generator: Adobe Illustrator 22.1.0, SVG Export Plug-In  -->
<svg version="1.1"
	 xmlns="http://www.w3.org/2000/svg" xmlns:xlink="http://www.w3.org/1999/xlink" xmlns:a="http://ns.adobe.com/AdobeSVGViewerExtensions/3.0/"
	 x="0px" y="0px" width="20.1px" height="24px" viewBox="0 0 20.1 24" style="enable-background:new 0 0 20.1 24;"
	 xml:space="preserve">
<defs>
</defs>
<g>
	<path d="M2.9,1.4c1.6-1.2,3.5-1.6,5.3-1.3c1.8,0.3,3.5,1.2,4.7,2.8c1.2,1.6,1.6,3.5,1.3,5.3c-0.2,1.4-0.8,2.7-1.8,3.7l1.4,1.8
		c0.1,0,0.2,0,0.3,0l0,0v0c0.2,0,0.4,0.1,0.6,0.3l5.1,6.8c0.3,0.4,0.4,0.9,0.4,1.4c-0.1,0.5-0.3,0.9-0.7,1.2c0,0,0,0-0.1,0
		c-0.4,0.3-0.9,0.4-1.4,0.3c-0.5-0.1-0.9-0.3-1.2-0.7c0,0,0,0,0,0l-5-6.8c-0.1-0.2-0.2-0.4-0.2-0.6l0,0c0-0.1,0-0.2,0.1-0.3
		l-1.4-1.8c-1.3,0.6-2.7,0.8-4.1,0.6c-1.8-0.3-3.5-1.2-4.7-2.8c0,0,0,0,0,0C0.2,9.8-0.2,7.9,0.1,6.1C0.3,4.3,1.3,2.6,2.9,1.4
		L2.9,1.4z M4.3,8.5C4.4,8.7,4.4,8.9,4.2,9C4.1,9.1,3.9,9.1,3.8,8.9C3.4,8.5,3.2,8,3.2,7.5C3.1,7,3.1,6.5,3.3,6
		c0.1-0.2,0.3-0.3,0.4-0.2C3.9,5.8,4,6,4,6.2C3.8,6.6,3.8,7,3.9,7.4C3.9,7.8,4.1,8.2,4.3,8.5L4.3,8.5z M4.5,5.3
		C4.4,5.5,4.2,5.5,4,5.3C3.9,5.2,3.9,5,4,4.8c0.1-0.1,0.1-0.1,0.2-0.2l0,0c0.1-0.1,0.1-0.1,0.2-0.2c0.2-0.1,0.4-0.1,0.5,0.1
		C5,4.7,5,4.9,4.8,5c-0.1,0-0.1,0.1-0.2,0.1l0,0l0,0C4.6,5.2,4.6,5.3,4.5,5.3L4.5,5.3z M3.9,2.7c1.2-0.9,2.7-1.2,4.1-1
		c1.4,0.2,2.7,1,3.6,2.2c0.9,1.2,1.2,2.7,1,4.1c-0.2,1.4-1,2.7-2.2,3.6s-2.7,1.2-4.1,1c-1.4-0.2-2.7-1-3.6-2.2
		c-0.9-1.2-1.2-2.7-1-4.1C1.9,4.9,2.6,3.6,3.9,2.7L3.9,2.7z M7.9,2.4C6.6,2.2,5.3,2.5,4.3,3.3c-1.1,0.8-1.7,2-1.9,3.2
		C2.2,7.7,2.5,9,3.3,10c0.8,1.1,2,1.7,3.2,1.9C7.7,12.1,9,11.8,10,11c1.1-0.8,1.7-2,1.9-3.2c0.2-1.2-0.1-2.5-0.9-3.6
		C10.2,3.2,9.1,2.5,7.9,2.4L7.9,2.4z M12,12.4l-0.1,0.1l0,0c-0.1,0.1-0.2,0.1-0.3,0.2l0,0l0,0l0,0l0,0l0,0l0,0l-0.1,0l0,0l0,0l0,0
		l0,0l0,0l0,0l0,0l0,0l0,0l0,0c0,0,0,0,0,0l0,0l0,0l0,0l0,0l0,0l0,0l0,0l0,0l0,0l0,0l0,0l0,0l0,0l0,0l0,0l0,0l0,0l0,0l0,0l0,0l0,0
		l0,0l0,0l0,0l0,0l0,0l0,0l0,0l0,0l0,0l0,0l0,0l0,0l0,0l0,0l0,0l0,0l0,0l0,0l0,0l0,0l0,0l0,0l0,0l0,0l0,0l0,0l0,0l0,0l0,0l0,0l0,0
		l0,0l0,0l-0.1,0l-0.1,0l1.3,1.7l1.2-0.9L12,12.4L12,12.4z M10.1,12.9L10.1,12.9c0.2-0.1,0.3-0.2,0.5-0.3c0.1-0.1,0.2-0.1,0.3-0.2
		l0,0l0,0l0,0l0.1,0l0,0l0,0l0,0l0,0l0,0l0,0l0,0l0,0l0,0l0,0l0,0l0,0l0,0l0,0l0,0l0,0l0,0l0,0l0,0l0,0l0,0l0,0l0,0l0,0l0,0l0,0l0,0
		l0,0l0,0l0,0l0,0l0,0l0,0l0,0l0,0c0.1,0,0.1-0.1,0.2-0.2l0,0l0,0l0,0l0,0l0,0l0,0l0,0l0,0l0,0l0,0l0,0l0,0l0,0l0,0l0,0l0,0l0,0l0,0
		l0,0l0,0l0,0l0,0l0,0l0,0l0,0l0,0l0,0c0.1-0.1,0.1-0.1,0.2-0.2l0,0l0,0l0,0l0,0c1-1,1.6-2.2,1.8-3.5c0.2-1.6-0.1-3.4-1.2-4.8
		C11.3,1.9,9.7,1,8.1,0.8C6.5,0.5,4.7,0.9,3.3,2C1.9,3,1,4.6,0.8,6.2C0.5,7.8,0.9,9.6,2,11l0,0c1.1,1.4,2.6,2.3,4.2,2.5
		C7.5,13.7,8.9,13.5,10.1,12.9L10.1,12.9z M13.9,14.5l-1.7,1.3l0,0l0,0l0,0l0,0c0,0,0,0.1-0.1,0.1l0,0c0,0,0,0.1,0,0.1l5.1,6.8l0,0
		c0.2,0.3,0.5,0.4,0.8,0.5c0.3,0,0.6,0,0.9-0.2l0,0c0.3-0.2,0.4-0.5,0.5-0.8c0-0.3,0-0.6-0.2-0.9l-5.1-6.8c0,0-0.1-0.1-0.1-0.1v0
		C14,14.5,14,14.5,13.9,14.5L13.9,14.5L13.9,14.5L13.9,14.5z"/>
</g>
</svg>
