<!-- Generator: Adobe Illustrator 22.1.0, SVG Export Plug-In  -->
<svg version="1.1"
	 xmlns="http://www.w3.org/2000/svg" xmlns:xlink="http://www.w3.org/1999/xlink" xmlns:a="http://ns.adobe.com/AdobeSVGViewerExtensions/3.0/"
	 x="0px" y="0px" width="15.9px" height="24.7px" viewBox="0 0 15.9 24.7" style="enable-background:new 0 0 15.9 24.7;"
	 xml:space="preserve">
<defs>
</defs>
<g>
	<path fill="orange" d="M5,16.1c-0.1-0.2,0-0.4,0.2-0.5c0.2-0.1,0.4,0,0.5,0.2l1.5,3c0.1,0.2,0,0.4-0.2,0.5c-0.2,0.1-0.4,0-0.5-0.2L5,16.1L5,16.1z
		 M8,0c2.2,0,4.2,0.9,5.6,2.3C15,3.8,15.9,5.8,15.9,8c0,2.3-3.7,9.2-6.1,13.6c-0.7,1.3-1.2,2.3-1.6,3c-0.1,0.2-0.3,0.2-0.5,0.2
		c-0.1,0-0.1-0.1-0.2-0.2c-0.3-0.7-0.9-1.7-1.6-3C3.7,17.1,0,10.3,0,8c0-2.2,0.9-4.2,2.3-5.6C3.8,0.9,5.8,0,8,0L8,0z M13.1,2.8
		C11.8,1.5,10,0.7,8,0.7c-2,0-3.8,0.8-5.1,2.1C1.5,4.2,0.7,6,0.7,8c0,2.1,3.6,8.9,6,13.2c0.5,0.9,0.9,1.7,1.3,2.4
		c0.3-0.7,0.8-1.5,1.3-2.4c2.3-4.4,6-11.1,6-13.2C15.2,6,14.4,4.2,13.1,2.8L13.1,2.8z M3.3,7c0,0.2-0.1,0.4-0.3,0.4S2.6,7.3,2.6,7.1
		C2.5,6.6,2.6,6,2.9,5.5c0.3-0.7,0.6-1.2,1-1.5C4,3.9,4.2,3.9,4.3,4.1c0.1,0.2,0.1,0.4-0.1,0.5C4,4.7,3.7,5.2,3.5,5.7
		C3.3,6.2,3.2,6.7,3.3,7L3.3,7z M5.8,3.4c-0.2,0.1-0.4,0-0.5-0.2c-0.1-0.2,0-0.4,0.2-0.5l0.1-0.1l0,0l0.1,0c0.2-0.1,0.4,0,0.5,0.2
		c0.1,0.2,0,0.4-0.2,0.5L6,3.4l0,0L5.8,3.4L5.8,3.4z M7.9,2.9c-0.2,0-0.3-0.2-0.3-0.4c0-0.2,0.2-0.3,0.4-0.3c1.7,0.1,3,0.8,3.9,1.7
		c1,1,1.5,2.4,1.5,3.8c0,1.5-0.6,2.9-1.6,3.9c-1,1-2.4,1.6-3.9,1.6c-1.2,0-2.4-0.4-3.3-1.1c-0.9-0.7-1.6-1.7-2-2.9
		C2.6,9,2.7,8.8,2.9,8.8C3.1,8.7,3.3,8.8,3.4,9c0.3,1,0.9,1.9,1.7,2.5c0.8,0.6,1.8,1,2.9,1c1.3,0,2.5-0.5,3.4-1.4
		c0.9-0.9,1.4-2,1.4-3.4c0-1.2-0.5-2.4-1.3-3.3C10.5,3.6,9.4,3,7.9,2.9L7.9,2.9z M5.1,14.4c0.1,0.2,0,0.4-0.2,0.5
		c-0.2,0.1-0.4,0-0.5-0.2l-0.1-0.1c-0.1-0.2,0-0.4,0.2-0.5s0.4,0,0.5,0.2L5.1,14.4L5.1,14.4z"/>
</g>
</svg>
